<?xml version="1.0" encoding="UTF-8" standalone="no"?>
<svg
   xmlns:dc="http://purl.org/dc/elements/1.1/"
   xmlns:cc="http://creativecommons.org/ns#"
   xmlns:rdf="http://www.w3.org/1999/02/22-rdf-syntax-ns#"
   xmlns:svg="http://www.w3.org/2000/svg"
   xmlns="http://www.w3.org/2000/svg"
   xmlns:sodipodi="http://sodipodi.sourceforge.net/DTD/sodipodi-0.dtd"
   xmlns:inkscape="http://www.inkscape.org/namespaces/inkscape"
   viewBox="0 0 276.4971 130.67525"
   version="1.1"
   id="svg873"
   inkscape:version="1.0.2-2 (e86c870879, 2021-01-15)"
   sodipodi:docname="fix.svg">
  <defs
     id="defs867">
    <filter
       inkscape:collect="always"
       style="color-interpolation-filters:sRGB"
       id="filter853"
       x="-4.8000002e-06"
       width="1.0000097"
       y="-4.8000002e-06"
       height="1.0000097">
      <feGaussianBlur
         inkscape:collect="always"
         stdDeviation="0.00015843526"
         id="feGaussianBlur855" />
    </filter>
    <filter
       inkscape:collect="always"
       style="color-interpolation-filters:sRGB"
       id="filter1074"
       x="-0.010274844"
       width="1.0205497"
       y="-0.024255713"
       height="1.0485114">
      <feGaussianBlur
         inkscape:collect="always"
         stdDeviation="0.33868229"
         id="feGaussianBlur1076" />
    </filter>
    <filter
       inkscape:collect="always"
       style="color-interpolation-filters:sRGB"
       id="filter1078"
       x="-0.034166522"
       width="1.068333"
       y="-0.080656543"
       height="1.1613131">
      <feGaussianBlur
         inkscape:collect="always"
         stdDeviation="1.1262065"
         id="feGaussianBlur1080" />
    </filter>
  </defs>
  <sodipodi:namedview
     id="base"
     pagecolor="#ffffff"
     bordercolor="#666666"
     borderopacity="1.0"
     inkscape:pageopacity="0.0"
     inkscape:pageshadow="2"
     inkscape:zoom="0.7"
     inkscape:cx="484.08793"
     inkscape:cy="314.55844"
     inkscape:document-units="mm"
     inkscape:current-layer="layer1"
     inkscape:document-rotation="0"
     showgrid="false"
     inkscape:window-width="1600"
     inkscape:window-height="837"
     inkscape:window-x="-8"
     inkscape:window-y="-8"
     inkscape:window-maximized="1"
     units="px"
     fit-margin-top="0"
     fit-margin-left="0"
     fit-margin-right="0"
     fit-margin-bottom="0" />
  <metadata
     id="metadata870">
    <rdf:RDF>
      <cc:Work
         rdf:about="">
        <dc:format>image/svg+xml</dc:format>
        <dc:type
           rdf:resource="http://purl.org/dc/dcmitype/StillImage" />
        <dc:title></dc:title>
      </cc:Work>
    </rdf:RDF>
  </metadata>
  <g
     inkscape:label="Layer 1"
     inkscape:groupmode="layer"
     id="layer1"
     transform="translate(4.3519269,-67.364054)">
    <g
       inkscape:label="Layer 1"
       id="layer1-0"
       style="filter:url(#filter853)"
       transform="matrix(3.3630037,0,0,3.2093572,-2.3742244,45.981704)">
      <path
         style="color:#000000;font-style:normal;font-variant:normal;font-weight:bold;font-stretch:normal;font-size:17.7092px;line-height:1;font-family:'Yu Gothic UI';-inkscape-font-specification:'Yu Gothic UI Bold';font-variant-ligatures:normal;font-variant-position:normal;font-variant-caps:normal;font-variant-numeric:normal;font-variant-alternates:normal;font-variant-east-asian:normal;font-feature-settings:normal;font-variation-settings:normal;text-indent:0;text-align:start;text-decoration:none;text-decoration-line:none;text-decoration-style:solid;text-decoration-color:#000000;letter-spacing:normal;word-spacing:normal;text-transform:none;writing-mode:lr-tb;direction:ltr;text-orientation:mixed;dominant-baseline:auto;baseline-shift:baseline;text-anchor:start;white-space:normal;shape-padding:0;shape-margin:0;inline-size:0;clip-rule:nonzero;display:inline;overflow:visible;visibility:visible;opacity:1;isolation:auto;mix-blend-mode:normal;color-interpolation:sRGB;color-interpolation-filters:linearRGB;solid-color:#000000;solid-opacity:1;vector-effect:none;fill:#000000;fill-opacity:0.5;fill-rule:nonzero;stroke:none;stroke-linecap:round;stroke-linejoin:round;stroke-miterlimit:4;stroke-dasharray:none;stroke-dashoffset:0;stroke-opacity:1;filter:url(#filter1074);color-rendering:auto;image-rendering:auto;shape-rendering:auto;text-rendering:auto;enable-background:accumulate;stop-color:#000000;stop-opacity:1"
         d="M 5.0683594,8.2597656 A 0.73257327,0.73257327 0 0 0 4.3730469,8.7617188 L 0.00976563,21.958984 A 0.73250002,0.73250002 0 0 0 0.47460938,22.884766 0.73250002,0.73250002 0 0 0 1.4003906,22.419922 L 5.5976562,9.7246094 H 6.7148438 L 10.564453,21.457031 H 9.9941406 L 9.1054688,18.611328 A 0.73257327,0.73257327 0 0 0 8.40625,18.097656 H 3.8242188 a 0.73257327,0.73257327 0 0 0 -0.7011719,0.521485 l -1.0078125,3.359375 a 0.73250002,0.73250002 0 0 0 0.4921875,0.912109 0.73250002,0.73250002 0 0 0 0.9121093,-0.490234 L 4.3691406,19.5625 h 3.5 l 0.8867188,2.845703 a 0.73257327,0.73257327 0 0 0 0.6992187,0.513672 h 2.1210939 a 0.73257327,0.73257327 0 0 0 0.695312,-0.960937 L 7.9414062,8.7636719 A 0.73257327,0.73257327 0 0 0 7.2460938,8.2597656 Z m 8.1074216,0 A 0.73250002,0.73250002 0 0 0 12.443359,8.9921875 V 22.189453 a 0.73257327,0.73257327 0 0 0 0.732422,0.732422 h 6.451172 a 0.73250002,0.73250002 0 0 0 0.732422,-0.732422 0.73250002,0.73250002 0 0 0 -0.732422,-0.732422 h -5.71875 V 8.9921875 A 0.73250002,0.73250002 0 0 0 13.175781,8.2597656 Z m 1.933594,0 A 0.73250002,0.73250002 0 0 0 14.376953,8.9921875 V 20.339844 a 0.73257327,0.73257327 0 0 0 0.732422,0.732422 h 4.517578 a 0.73250002,0.73250002 0 0 0 0.732422,-0.732422 0.73250002,0.73250002 0 0 0 -0.732422,-0.732422 H 15.841797 V 8.9921875 A 0.73250002,0.73250002 0 0 0 15.109375,8.2597656 Z m 6.199219,0 A 0.73250002,0.73250002 0 0 0 20.576172,8.9921875 V 22.189453 a 0.73257327,0.73257327 0 0 0 0.732422,0.732422 h 6.451172 a 0.73250002,0.73250002 0 0 0 0.732422,-0.732422 0.73250002,0.73250002 0 0 0 -0.732422,-0.732422 h -5.71875 V 8.9921875 A 0.73250002,0.73250002 0 0 0 21.308594,8.2597656 Z m 1.933594,0 A 0.73250002,0.73250002 0 0 0 22.509766,8.9921875 V 20.339844 a 0.73257327,0.73257327 0 0 0 0.732422,0.732422 h 4.517578 a 0.73250002,0.73250002 0 0 0 0.732422,-0.732422 0.73250002,0.73250002 0 0 0 -0.732422,-0.732422 H 23.974609 V 8.9921875 A 0.73250002,0.73250002 0 0 0 23.242188,8.2597656 Z m 6.199218,0 A 0.73257327,0.73257327 0 0 0 28.708984,8.9921875 V 22.189453 a 0.73257327,0.73257327 0 0 0 0.732422,0.732422 h 6.539063 a 0.73250002,0.73250002 0 0 0 0.734375,-0.732422 0.73250002,0.73250002 0 0 0 -0.734375,-0.732422 H 30.173828 V 9.7246094 h 5.546875 A 0.73250002,0.73250002 0 0 0 36.453125,8.9921875 0.73250002,0.73250002 0 0 0 35.720703,8.2597656 Z m 8.611328,0 A 0.73250002,0.73250002 0 0 0 37.320312,8.9921875 V 22.189453 a 0.73250002,0.73250002 0 0 0 0.732422,0.732422 0.73250002,0.73250002 0 0 0 0.732422,-0.732422 V 8.9921875 A 0.73250002,0.73250002 0 0 0 38.052734,8.2597656 Z m 2.232422,0 a 0.73250002,0.73250002 0 0 0 -0.34375,0.095703 0.73250002,0.73250002 0 0 0 -0.27539,0.9980468 l 5.378906,9.4707036 a 0.73257327,0.73257327 0 0 0 0.0039,0.0039 c 0.222745,0.384491 0.367699,0.661744 0.402344,0.740234 a 0.73257327,0.73257327 0 0 0 0.669922,0.435547 h 0.03125 a 0.73257327,0.73257327 0 0 0 0.724609,-0.84375 c -0.04068,-0.262622 -0.07227,-0.845471 -0.07227,-1.664062 V 8.9921875 A 0.73250002,0.73250002 0 0 0 46.072266,8.2597656 0.73250002,0.73250002 0 0 0 45.339844,8.9921875 V 16.376953 L 40.941406,8.6308594 a 0.73250002,0.73250002 0 0 0 -0.65625,-0.3710938 z m 7.646485,0 A 0.73250002,0.73250002 0 0 0 47.199219,8.9921875 V 22.189453 a 0.73250002,0.73250002 0 0 0 0.732422,0.732422 0.73250002,0.73250002 0 0 0 0.732421,-0.732422 V 8.9921875 A 0.73250002,0.73250002 0 0 0 47.931641,8.2597656 Z m -8.074219,2.7324224 a 0.73257327,0.73257327 0 0 0 -0.72461,0.84375 c 0.02509,0.163418 0.05664,0.78808 0.05664,1.703124 v 8.650391 a 0.73250002,0.73250002 0 0 0 0.732422,0.732422 0.73250002,0.73250002 0 0 0 0.732422,-0.732422 v -7.53125 l 4.53125,7.896485 a 0.73250002,0.73250002 0 0 0 1,0.269531 0.73250002,0.73250002 0 0 0 0.269531,-1 L 40.890625,12.125 c -0.118732,-0.206921 -0.21589,-0.419771 -0.292969,-0.640625 A 0.73257327,0.73257327 0 0 0 39.90625,10.992188 Z M 31.375,15.705078 A 0.73257327,0.73257327 0 0 0 30.642578,16.4375 v 3.902344 A 0.73257327,0.73257327 0 0 0 31.375,21.072266 h 4.605469 a 0.73250002,0.73250002 0 0 0 0.734375,-0.732422 0.73250002,0.73250002 0 0 0 -0.734375,-0.732422 h -3.873047 v -2.4375 h 3.273437 A 0.73250002,0.73250002 0 0 0 36.113281,16.4375 0.73250002,0.73250002 0 0 0 35.380859,15.705078 Z m 13.169922,11.181641 a 0.73250002,0.73250002 0 0 0 -0.732422,0.732422 0.73250002,0.73250002 0 0 0 0.732422,0.732421 c 0.87411,0 1.501923,0.178343 2.070312,0.390626 v 0.636718 c -0.611562,-0.23567 -1.19443,-0.568359 -1.867187,-0.568359 -1.438873,0 -2.715215,0.565651 -3.626953,1.626953 a 0.73257327,0.73257327 0 0 0 -0.002,0.002 c -0.910711,1.067466 -1.345703,2.484317 -1.345703,4.136719 0,1.576901 0.409671,2.933482 1.271484,3.953125 a 0.73257327,0.73257327 0 0 0 0,0.002 c 0.858505,1.008527 2.075761,1.544922 3.443359,1.544922 0.763857,0 1.464164,-0.178141 2.126953,-0.441406 v 0.851562 a 0.73250002,0.73250002 0 0 0 0.732422,0.732422 0.73250002,0.73250002 0 0 0 0.732422,-0.732422 v -2.02539 a 0.73257327,0.73257327 0 0 0 -1.164062,-0.591797 c -0.679075,0.495624 -1.459027,0.742187 -2.427735,0.742187 -1.015574,0 -1.722277,-0.321825 -2.326172,-1.03125 -0.5999,-0.710457 -0.921875,-1.673354 -0.921875,-3.003906 0,-1.401893 0.344083,-2.424826 0.992188,-3.185547 l 0.002,-0.002 c 0.65856,-0.765508 1.429621,-1.113281 2.513672,-1.113281 0.811928,0 1.519272,0.214433 2.191406,0.666015 a 0.73257327,0.73257327 0 0 0 1.140625,-0.607422 v -2.171875 a 0.73257327,0.73257327 0 0 0 -0.412109,-0.658203 c -0.873324,-0.426047 -1.918001,-0.617187 -3.123047,-0.617187 z m -30.148438,0.220703 a 0.73250002,0.73250002 0 0 0 -0.210937,0.0332 0.73250002,0.73250002 0 0 0 -0.482422,0.917969 l 4.111328,13.197265 a 0.73250002,0.73250002 0 0 0 0.917969,0.480469 0.73250002,0.73250002 0 0 0 0.480469,-0.916016 L 15.101562,27.623047 a 0.73250002,0.73250002 0 0 0 -0.705078,-0.515625 z m 2.128907,0 a 0.73250002,0.73250002 0 0 0 -0.212891,0.0293 0.73250002,0.73250002 0 0 0 -0.501953,0.90625 L 18.6875,38.054688 a 0.73257327,0.73257327 0 0 0 0,0.002 c 0.07769,0.269195 0.142355,0.602076 0.1875,0.99414 a 0.73257327,0.73257327 0 0 0 0.728516,0.648438 h 0.03125 a 0.73257327,0.73257327 0 0 0 0.728515,-0.654297 c 0.03231,-0.298084 0.101959,-0.633555 0.210938,-1.003906 l 2.939453,-9.994141 a 0.73250002,0.73250002 0 0 0 -0.496094,-0.910156 0.73250002,0.73250002 0 0 0 -0.908203,0.496093 l -2.474609,8.41211 -2.416016,-8.40625 a 0.73250002,0.73250002 0 0 0 -0.693359,-0.53125 z m 8.341797,0 a 0.73250002,0.73250002 0 0 0 -0.707032,0.511719 l -4.183594,13.197265 a 0.73250002,0.73250002 0 0 0 0.476563,0.919922 0.73250002,0.73250002 0 0 0 0.919922,-0.476562 l 4.183594,-13.199219 a 0.73250002,0.73250002 0 0 0 -0.476563,-0.917969 0.73250002,0.73250002 0 0 0 -0.21289,-0.03516 z m 1.527343,0 a 0.73250002,0.73250002 0 0 0 -0.732422,0.732422 v 13.197265 a 0.73250002,0.73250002 0 0 0 0.732422,0.732422 0.73250002,0.73250002 0 0 0 0.732422,-0.732422 V 27.839844 a 0.73250002,0.73250002 0 0 0 -0.732422,-0.732422 z m 1.990235,0 a 0.73250002,0.73250002 0 0 0 -0.732422,0.732422 v 13.197265 a 0.73250002,0.73250002 0 0 0 0.732422,0.732422 0.73250002,0.73250002 0 0 0 0.732422,-0.732422 V 27.839844 a 0.73250002,0.73250002 0 0 0 -0.732422,-0.732422 z m 2.86914,0 a 0.73250002,0.73250002 0 0 0 -0.732422,0.732422 v 13.197265 a 0.73257327,0.73257327 0 0 0 0.732422,0.732422 h 6.449219 a 0.73250002,0.73250002 0 0 0 0.732422,-0.732422 0.73250002,0.73250002 0 0 0 -0.732422,-0.732421 H 31.986328 V 27.839844 a 0.73250002,0.73250002 0 0 0 -0.732422,-0.732422 z m 1.933594,0 a 0.73250002,0.73250002 0 0 0 -0.732422,0.732422 V 39.1875 a 0.73257327,0.73257327 0 0 0 0.732422,0.732422 h 4.515625 A 0.73250002,0.73250002 0 0 0 38.435547,39.1875 0.73250002,0.73250002 0 0 0 37.703125,38.455078 H 33.919922 V 27.839844 A 0.73250002,0.73250002 0 0 0 33.1875,27.107422 Z m 16.369141,0 a 0.73250002,0.73250002 0 0 0 -0.732422,0.732422 v 13.197265 a 0.73250002,0.73250002 0 0 0 0.732422,0.732422 0.73250002,0.73250002 0 0 0 0.732421,-0.732422 V 27.839844 a 0.73250002,0.73250002 0 0 0 -0.732421,-0.732422 z m 1.933593,0 a 0.73250002,0.73250002 0 0 0 -0.732422,0.732422 v 5.550781 a 0.73257327,0.73257327 0 0 0 0.732422,0.732422 h 5.484375 a 0.73257327,0.73257327 0 0 0 0.732422,-0.732422 v -5.550781 a 0.73250002,0.73250002 0 0 0 -0.732422,-0.732422 0.73250002,0.73250002 0 0 0 -0.732421,0.732422 v 4.816406 h -4.019532 v -4.816406 a 0.73250002,0.73250002 0 0 0 -0.732422,-0.732422 z m 7.425782,0 a 0.73250002,0.73250002 0 0 0 -0.732422,0.732422 v 13.197265 a 0.73250002,0.73250002 0 0 0 0.732422,0.732422 0.73250002,0.73250002 0 0 0 0.732422,-0.732422 V 27.839844 a 0.73250002,0.73250002 0 0 0 -0.732422,-0.732422 z m 2.876953,0 a 0.73257327,0.73257327 0 0 0 -0.732422,0.732422 v 13.197265 a 0.73257327,0.73257327 0 0 0 0.732422,0.732422 h 6.539062 a 0.73250002,0.73250002 0 0 0 0.734375,-0.732422 0.73250002,0.73250002 0 0 0 -0.734375,-0.732421 h -5.80664 V 28.572266 h 5.546875 a 0.73250002,0.73250002 0 0 0 0.732422,-0.732422 0.73250002,0.73250002 0 0 0 -0.732422,-0.732422 z m 7.960937,0 a 0.73250002,0.73250002 0 0 0 -0.732422,0.732422 0.73250002,0.73250002 0 0 0 0.732422,0.732422 h 7.863282 v 0.01758 l -3.050782,4.966797 -3.226562,5.248047 a 0.73257327,0.73257327 0 0 0 0.625,1.115234 h 6.304687 A 0.73250002,0.73250002 0 0 0 79.001953,39.1875 0.73250002,0.73250002 0 0 0 78.269531,38.455078 h -4.996093 l 2.541015,-4.132812 3.160156,-5.140625 a 0.73257327,0.73257327 0 0 0 0.107422,-0.384766 v -0.957031 a 0.73257327,0.73257327 0 0 0 -0.732422,-0.732422 z m -6.027344,1.859375 a 0.73257327,0.73257327 0 0 0 -0.732421,0.732422 v 3.736328 a 0.73257327,0.73257327 0 0 0 0.732421,0.732422 H 67 v 0.384765 h -3.273438 a 0.73257327,0.73257327 0 0 0 -0.732421,0.732422 V 39.1875 a 0.73257327,0.73257327 0 0 0 0.732421,0.732422 h 4.605469 A 0.73250002,0.73250002 0 0 0 69.066406,39.1875 0.73250002,0.73250002 0 0 0 68.332031,38.455078 h -3.873047 v -2.4375 h 3.273438 a 0.73257327,0.73257327 0 0 0 0.732422,-0.732422 v -1.849609 a 0.73257327,0.73257327 0 0 0 -0.732422,-0.732422 h -3.273438 v -2.271484 h 3.613282 a 0.73250002,0.73250002 0 0 0 0.732422,-0.732422 0.73250002,0.73250002 0 0 0 -0.732422,-0.732422 z M 51.490234,34.580078 A 0.73257327,0.73257327 0 0 0 50.757812,35.3125 v 5.724609 a 0.73250002,0.73250002 0 0 0 0.732422,0.732422 0.73250002,0.73250002 0 0 0 0.732422,-0.732422 v -4.992187 h 4.019532 v 4.992187 a 0.73250002,0.73250002 0 0 0 0.732421,0.732422 0.73250002,0.73250002 0 0 0 0.732422,-0.732422 V 35.3125 a 0.73257327,0.73257327 0 0 0 -0.732422,-0.732422 z"
         id="path1086"
         transform="matrix(0.97385032,-0.22719058,0.23425296,1.0041232,-5.7385604,9.6247715)" />
      <path
         id="path1088"
         style="fill:#26005b;fill-opacity:1;stroke:none;stroke-width:0.264999;stroke-linecap:round;stroke-linejoin:round;stroke-miterlimit:4;stroke-dasharray:none;stroke-opacity:0.301205"
         d="m 44.037303,6.6777836 a 0.43431295,0.50113033 76.868274 0 0 -0.389534,0.5366127 0.43431295,0.50113033 76.868274 0 0 0.58689,0.3093524 0.43431295,0.50113033 76.868274 0 0 0.389419,-0.5371166 0.43431295,0.50113033 76.868274 0 0 -0.586775,-0.3088485 z m -7.52426,1.8524499 a 0.43431295,0.50113033 76.868274 0 0 -0.389534,0.5366128 0.43431295,0.50113033 76.868274 0 0 0.58689,0.3093522 0.43431295,0.50113033 76.868274 0 0 0.388914,-0.5369986 0.43431295,0.50113033 76.868274 0 0 -0.58627,-0.3089664 z M 25.802969,11.077086 a 0.43431295,0.50113033 76.868274 0 0 -0.389536,0.536613 0.43431295,0.50113033 76.868274 0 0 0.586892,0.309353 0.43431295,0.50113033 76.868274 0 0 0.389417,-0.537116 0.43431295,0.50113033 76.868274 0 0 -0.586773,-0.30885 z m 8.466193,-1.9750869 a 0.43431295,0.50113033 76.868274 0 0 -0.389534,0.5366128 0.43431295,0.50113033 76.868274 0 0 0.58689,0.3093525 0.43431295,0.50113033 76.868274 0 0 0.388913,-0.5369989 0.43431295,0.50113033 76.868274 0 0 -0.586269,-0.3089664 z M 4.4292361,16.160495 A 0.43431295,0.50113033 76.868274 0 0 4.0397019,16.697108 0.43431295,0.50113033 76.868274 0 0 4.6265922,17.00646 0.43431295,0.50113033 76.868274 0 0 5.0155057,16.469461 0.43431295,0.50113033 76.868274 0 0 4.4292361,16.160495 Z M 20.08348,12.556788 a 0.43431295,0.50113033 76.868274 0 0 -0.388914,0.536999 0.43431295,0.50113033 76.868274 0 0 0.58627,0.308966 0.43431295,0.50113033 76.868274 0 0 0.389535,-0.536613 0.43431295,0.50113033 76.868274 0 0 -0.586891,-0.309352 z m -10.019496,2.386278 a 0.43431295,0.50113033 76.868274 0 0 -0.3895349,0.536612 0.43431295,0.50113033 76.868274 0 0 0.5868909,0.309353 0.43431295,0.50113033 76.868274 0 0 0.389417,-0.537117 0.43431295,0.50113033 76.868274 0 0 -0.586773,-0.308848 z m 34.537365,2.470646 a 0.43431295,0.50113033 76.868274 0 0 -0.389535,0.536613 0.43431295,0.50113033 76.868274 0 0 0.586891,0.309352 0.43431295,0.50113033 76.868274 0 0 0.389418,-0.537116 0.43431295,0.50113033 76.868274 0 0 -0.586774,-0.308849 z m -25.657446,7.10159 a 0.43431295,0.50113033 76.868274 0 0 -0.389534,0.536612 0.43431295,0.50113033 76.868274 0 0 0.58689,0.309353 0.43431295,0.50113033 76.868274 0 0 0.388914,-0.536998 0.43431295,0.50113033 76.868274 0 0 -0.58627,-0.308967 z m -5.711672,3.175926 a 0.43431295,0.50113033 76.868274 0 0 -0.389534,0.536614 0.43431295,0.50113033 76.868274 0 0 0.58689,0.309351 0.43431295,0.50113033 76.868274 0 0 0.388914,-0.536998 0.43431295,0.50113033 76.868274 0 0 -0.58627,-0.308967 z M 37.444762,22.09095 a 0.43431295,0.50113033 76.868274 0 0 -0.389417,0.537116 0.43431295,0.50113033 76.868274 0 0 0.586773,0.308849 0.43431295,0.50113033 76.868274 0 0 0.389536,-0.536613 0.43431295,0.50113033 76.868274 0 0 -0.586892,-0.309352 z m -10.019496,2.386278 a 0.43431295,0.50113033 76.868274 0 0 -0.389534,0.536612 0.43431295,0.50113033 76.868274 0 0 0.58689,0.309353 0.43431295,0.50113033 76.868274 0 0 0.388914,-0.537 0.43431295,0.50113033 76.868274 0 0 -0.58627,-0.308965 z M 0.97903369,30.695185 A 0.43431295,0.50113033 76.868274 0 0 0.58961695,31.232302 0.43431295,0.50113033 76.868274 0 0 1.1763898,31.54115 0.43431295,0.50113033 76.868274 0 0 1.5659241,31.004538 0.43431295,0.50113033 76.868274 0 0 0.97903369,30.695185 Z M 47.171637,20.113078 a 0.43431295,0.50113033 76.868274 0 0 -0.389534,0.536612 0.43431295,0.50113033 76.868274 0 0 0.58689,0.309353 0.43431295,0.50113033 76.868274 0 0 0.389419,-0.537117 0.43431295,0.50113033 76.868274 0 0 -0.586775,-0.308848 z m 4.485778,4.047657 a 0.43431295,0.50113033 76.868274 0 0 -0.389032,0.536494 0.43431295,0.50113033 76.868274 0 0 0.586388,0.309471 0.43431295,0.50113033 76.868274 0 0 0.389416,-0.537117 0.43431295,0.50113033 76.868274 0 0 -0.586772,-0.308848 z m -28.122779,6.58308 a 0.43431295,0.50113033 76.868274 0 0 -0.389417,0.537117 0.43431295,0.50113033 76.868274 0 0 0.586773,0.308847 0.43431295,0.50113033 76.868274 0 0 0.38903,-0.536494 0.43431295,0.50113033 76.868274 0 0 -0.586386,-0.30947 z m -6.069044,1.484835 a 0.43431295,0.50113033 76.868274 0 0 -0.389534,0.536614 0.43431295,0.50113033 76.868274 0 0 0.586891,0.309353 0.43431295,0.50113033 76.868274 0 0 0.389416,-0.537117 0.43431295,0.50113033 76.868274 0 0 -0.586773,-0.30885 z m 9.768069,-2.244842 a 0.43431295,0.50113033 76.868274 0 0 -0.389417,0.537117 0.43431295,0.50113033 76.868274 0 0 0.586774,0.30885 0.43431295,0.50113033 76.868274 0 0 0.389534,-0.536614 0.43431295,0.50113033 76.868274 0 0 -0.586891,-0.309353 z m -1.351064,0.384175 a 0.43431295,0.50113033 76.868274 0 0 -0.389534,0.536615 0.43431295,0.50113033 76.868274 0 0 0.586773,0.308847 0.43431295,0.50113033 76.868274 0 0 0.389031,-0.536494 0.43431295,0.50113033 76.868274 0 0 -0.58627,-0.308968 z m 8.003705,-1.867193 a 0.43431295,0.50113033 76.868274 0 0 -0.389534,0.536614 0.43431295,0.50113033 76.868274 0 0 0.58689,0.30935 0.43431295,0.50113033 76.868274 0 0 0.388914,-0.536996 0.43431295,0.50113033 76.868274 0 0 -0.58627,-0.308968 z m 10.866701,-2.535104 a 0.43431295,0.50113033 76.868274 0 0 -0.389533,0.536614 0.43431295,0.50113033 76.868274 0 0 0.586889,0.30935 0.43431295,0.50113033 76.868274 0 0 0.388915,-0.536997 0.43431295,0.50113033 76.868274 0 0 -0.586271,-0.308967 z m 14.125251,-3.295295 a 0.43431295,0.50113033 76.868274 0 0 -0.389533,0.536614 0.43431295,0.50113033 76.868274 0 0 0.586889,0.309351 0.43431295,0.50113033 76.868274 0 0 0.389417,-0.537115 0.43431295,0.50113033 76.868274 0 0 -0.586773,-0.30885 z M 15.576483,32.806268 a 0.43431295,0.50113033 76.868274 0 0 -0.389416,0.537117 0.43431295,0.50113033 76.868274 0 0 0.586772,0.308848 0.43431295,0.50113033 76.868274 0 0 0.389031,-0.536494 0.43431295,0.50113033 76.868274 0 0 -0.586387,-0.309471 z m 13.704615,-3.162673 a 0.43431295,0.50113033 76.868274 0 0 -0.389031,0.536497 0.43431295,0.50113033 76.868274 0 0 0.586388,0.309469 0.43431295,0.50113033 76.868274 0 0 0.389416,-0.537116 0.43431295,0.50113033 76.868274 0 0 -0.586773,-0.30885 z m 2.602814,-0.607213 a 0.43431295,0.50113033 76.868274 0 0 -0.389533,0.536613 0.43431295,0.50113033 76.868274 0 0 0.58689,0.309354 0.43431295,0.50113033 76.868274 0 0 0.389416,-0.537116 0.43431295,0.50113033 76.868274 0 0 -0.586773,-0.308851 z m 37.457356,-8.516129 a 0.43431295,0.50113033 76.868274 0 0 -0.389416,0.537117 0.43431295,0.50113033 76.868274 0 0 0.586772,0.30885 0.43431295,0.50113033 76.868274 0 0 0.389537,-0.536614 0.43431295,0.50113033 76.868274 0 0 -0.586893,-0.309353 z m -21.458471,5.34568 a 0.43431295,0.50113033 76.868274 0 0 -0.388914,0.536999 0.43431295,0.50113033 76.868274 0 0 0.586271,0.308968 0.43431295,0.50113033 76.868274 0 0 0.389534,-0.536615 0.43431295,0.50113033 76.868274 0 0 -0.586891,-0.309352 z m -6.8809,12.844216 a 0.43431295,0.50113033 76.868274 0 0 -0.389416,0.537117 0.43431295,0.50113033 76.868274 0 0 0.586772,0.308848 0.43431295,0.50113033 76.868274 0 0 0.389535,-0.536612 0.43431295,0.50113033 76.868274 0 0 -0.586891,-0.309353 z m 29.61656,-6.892298 a 0.43431295,0.50113033 76.868274 0 0 -0.389533,0.536615 0.43431295,0.50113033 76.868274 0 0 0.586889,0.30935 0.43431295,0.50113033 76.868274 0 0 0.38942,-0.537115 0.43431295,0.50113033 76.868274 0 0 -0.586776,-0.30885 z m -19.961186,6.354816 a 0.43431295,0.50113033 76.868274 0 0 -0.389533,0.536614 0.43431295,0.50113033 76.868274 0 0 0.586889,0.30935 0.43431295,0.50113033 76.868274 0 0 0.388915,-0.536997 0.43431295,0.50113033 76.868274 0 0 -0.586271,-0.308967 z m 9.428988,-2.006015 a 0.43431295,0.50113033 76.868274 0 0 -0.389416,0.537117 0.43431295,0.50113033 76.868274 0 0 0.586772,0.308847 0.43431295,0.50113033 76.868274 0 0 0.389537,-0.536611 0.43431295,0.50113033 76.868274 0 0 -0.586893,-0.309353 z m 4.576412,-0.970529 a 0.43431295,0.50113033 76.868274 0 0 -0.388914,0.536999 0.43431295,0.50113033 76.868274 0 0 0.58627,0.308968 0.43431295,0.50113033 76.868274 0 0 0.389534,-0.536614 0.43431295,0.50113033 76.868274 0 0 -0.58689,-0.309353 z m -23.010102,5.420584 a 0.43431295,0.50113033 76.868274 0 0 -0.389417,0.537117 0.43431295,0.50113033 76.868274 0 0 0.586773,0.308848 0.43431295,0.50113033 76.868274 0 0 0.389534,-0.536612 0.43431295,0.50113033 76.868274 0 0 -0.58689,-0.309353 z m -11.291735,2.771697 a 0.43431295,0.50113033 76.868274 0 0 -0.389534,0.536614 0.43431295,0.50113033 76.868274 0 0 0.586889,0.309351 0.43431295,0.50113033 76.868274 0 0 0.389419,-0.537114 0.43431295,0.50113033 76.868274 0 0 -0.586774,-0.308851 z m 1.952112,-0.455409 a 0.43431295,0.50113033 76.868274 0 0 -0.389534,0.536614 0.43431295,0.50113033 76.868274 0 0 0.586889,0.30935 0.43431295,0.50113033 76.868274 0 0 0.389417,-0.537114 0.43431295,0.50113033 76.868274 0 0 -0.586772,-0.30885 z M 24.714907,44.774 a 0.43431295,0.50113033 76.868274 0 0 -0.389417,0.537117 0.43431295,0.50113033 76.868274 0 0 0.586773,0.30885 0.43431295,0.50113033 76.868274 0 0 0.389534,-0.536614 0.43431295,0.50113033 76.868274 0 0 -0.58689,-0.309353 z m -1.936849,0.520834 a 0.43431295,0.50113033 76.868274 0 0 -0.389534,0.536614 0.43431295,0.50113033 76.868274 0 0 0.58689,0.30935 0.43431295,0.50113033 76.868274 0 0 0.389417,-0.537113 0.43431295,0.50113033 76.868274 0 0 -0.586773,-0.308851 z" />
      <path
         id="path885"
         style="color:#000000;font-style:normal;font-variant:normal;font-weight:bold;font-stretch:normal;font-size:17.7092px;line-height:1;font-family:'Yu Gothic UI';-inkscape-font-specification:'Yu Gothic UI Bold';font-variant-ligatures:normal;font-variant-position:normal;font-variant-caps:normal;font-variant-numeric:normal;font-variant-alternates:normal;font-variant-east-asian:normal;font-feature-settings:normal;font-variation-settings:normal;text-indent:0;text-align:start;text-decoration:none;text-decoration-line:none;text-decoration-style:solid;text-decoration-color:#000000;letter-spacing:normal;word-spacing:normal;text-transform:none;writing-mode:lr-tb;direction:ltr;text-orientation:mixed;dominant-baseline:auto;baseline-shift:baseline;text-anchor:start;white-space:normal;shape-padding:0;shape-margin:0;inline-size:0;clip-rule:nonzero;display:inline;overflow:visible;visibility:visible;opacity:1;isolation:auto;mix-blend-mode:normal;color-interpolation:sRGB;color-interpolation-filters:linearRGB;solid-color:#000000;solid-opacity:1;vector-effect:none;fill:#f9a4e7;fill-opacity:0.273092;fill-rule:nonzero;stroke:none;stroke-width:1;stroke-linecap:round;stroke-linejoin:round;stroke-miterlimit:4;stroke-dasharray:none;stroke-dashoffset:0;stroke-opacity:1;color-rendering:auto;image-rendering:auto;shape-rendering:auto;text-rendering:auto;enable-background:accumulate;stop-color:#000000;stop-opacity:1"
         d="m 28.203821,12.360964 a 0.73257327,0.73257327 0 0 0 -0.546746,0.879469 l 0.848831,3.638506 a 0.73257327,0.73257327 0 0 0 0.879586,0.547248 l 3.901204,-0.910117 a 0.73250001,0.73250001 0 0 0 0.546626,-0.87997 0.73250001,0.73250001 0 0 0 -0.879467,-0.546746 l -3.187593,0.743637 -0.516108,-2.212292 3.518732,-0.820888 a 0.73250001,0.73250001 0 0 0 0.546745,-0.879469 0.73250001,0.73250001 0 0 0 -0.879469,-0.546745 z M 3.6043,18.201696 a 0.73257327,0.73257327 0 0 0 -0.5637511,0.781553 c 0.030037,0.330269 0.037856,0.584307 0.029264,0.735009 L 2.706836,25.202203 a 0.73257327,0.73257327 0 0 0 0.8971404,0.761246 L 7.0774112,25.153128 A 0.73250001,0.73250001 0 0 0 7.6241565,24.273659 0.73250001,0.73250001 0 0 0 6.7446883,23.726914 l -2.5107198,0.585728 0.2651361,-3.99496 A 0.73250001,0.73250001 0 0 0 4.7812643,19.325358 C 4.7290258,19.231013 4.6195564,18.987844 4.4859195,18.643934 A 0.73257327,0.73257327 0 0 0 3.6370113,18.194065 Z m 37.432559,10.386292 a 0.73250001,0.73250001 0 0 0 -0.46691,0.364164 c -0.910186,1.699541 -1.083942,3.701424 -0.57439,5.88561 0.474829,2.035351 1.42074,3.645065 2.843556,4.707765 1.426212,1.065237 3.157104,1.391347 4.972876,0.967741 a 0.73250001,0.73250001 0 0 0 0.546746,-0.879466 0.73250001,0.73250001 0 0 0 -0.879587,-0.547248 c -1.475621,0.344249 -2.656942,0.110152 -3.763214,-0.716121 -1.109667,-0.828807 -1.87637,-2.076801 -2.293661,-3.865511 -0.449477,-1.926682 -0.286087,-3.506332 0.438608,-4.859513 a 0.73250001,0.73250001 0 0 0 -0.299576,-0.992984 0.73250001,0.73250001 0 0 0 -0.488096,-0.07239 0.73250001,0.73250001 0 0 0 -0.03636,0.008 z M 69.861232,21.99618 a 0.73250001,0.73250001 0 0 0 -0.546746,0.879468 0.73250001,0.73250001 0 0 0 0.879587,0.547249 l 4.479435,-1.045014 -2.172048,6.42283 -1.301517,3.851493 a 0.73257327,0.73257327 0 0 0 -0.01825,0.401707 l 0.227646,0.975804 a 0.73257327,0.73257327 0 0 0 0.879469,0.546746 l 8.774184,-2.046938 a 0.73250001,0.73250001 0 0 0 0.546744,-0.879469 0.73250001,0.73250001 0 0 0 -0.879584,-0.547249 l -8.061077,1.880578 -0.01421,-0.0609 1.235718,-3.653603 2.591069,-7.667825 a 0.73257327,0.73257327 0 0 0 -0.859206,-0.948923 z" />
      <path
         id="path881"
         style="font-style:normal;font-variant:normal;font-weight:bold;font-stretch:normal;font-size:17.7092px;line-height:1;font-family:'Yu Gothic UI';-inkscape-font-specification:'Yu Gothic UI Bold';fill:none;stroke:#f9e0e7;stroke-width:0.265;stroke-linecap:round;stroke-linejoin:round;stroke-miterlimit:4;stroke-dasharray:none;stroke-opacity:0.301205"
         d="m 80.896271,31.816829 -8.774406,2.04699 -0.227909,-0.976928 1.302105,-3.852134 2.592375,-7.669253 -5.759934,1.343741 M 47.644855,39.800897 c -1.645696,0.383926 -3.101664,0.103008 -4.367907,-0.842741 -1.266242,-0.945754 -2.122394,-2.374648 -2.568453,-4.286678 -0.479515,-2.055434 -0.310553,-3.846332 0.506888,-5.372696 m -8.612412,-17.212985 -4.232918,0.987502 0.848906,3.638833 3.900616,-0.909978 M 4.1410724,19.680197 C 4.0545701,19.523969 3.9417337,19.26678 3.8025629,18.908629 l -0.03165,0.0073 c 0.031982,0.351655 0.041963,0.63284 0.029938,0.843554 l -0.3626605,5.490298 3.473367,-0.810305" />
      <path
         style="color:#000000;font-style:normal;font-variant:normal;font-weight:bold;font-stretch:normal;font-size:17.7092px;line-height:1;font-family:'Yu Gothic UI';-inkscape-font-specification:'Yu Gothic UI Bold';font-variant-ligatures:normal;font-variant-position:normal;font-variant-caps:normal;font-variant-numeric:normal;font-variant-alternates:normal;font-variant-east-asian:normal;font-feature-settings:normal;font-variation-settings:normal;text-indent:0;text-align:start;text-decoration:none;text-decoration-line:none;text-decoration-style:solid;text-decoration-color:#000000;letter-spacing:normal;word-spacing:normal;text-transform:none;writing-mode:lr-tb;direction:ltr;text-orientation:mixed;dominant-baseline:auto;baseline-shift:baseline;text-anchor:start;white-space:normal;shape-padding:0;shape-margin:0;inline-size:0;clip-rule:nonzero;display:inline;overflow:visible;visibility:visible;opacity:1;isolation:auto;mix-blend-mode:normal;color-interpolation:sRGB;color-interpolation-filters:linearRGB;solid-color:#000000;solid-opacity:1;vector-effect:none;fill:#d6006e;fill-opacity:1;fill-rule:nonzero;stroke:none;stroke-linecap:round;stroke-linejoin:round;stroke-miterlimit:4;stroke-dasharray:none;stroke-dashoffset:0;stroke-opacity:1;filter:url(#filter1078);color-rendering:auto;image-rendering:auto;shape-rendering:auto;text-rendering:auto;enable-background:accumulate;stop-color:#000000;stop-opacity:1"
         d="M 5.0683594,8.2597656 A 0.73257327,0.73257327 0 0 0 4.3730469,8.7617188 L 0.00976563,21.958984 A 0.73250002,0.73250002 0 0 0 0.47460938,22.884766 0.73250002,0.73250002 0 0 0 1.4003906,22.419922 L 5.5976562,9.7246094 H 6.7148438 L 10.564453,21.457031 H 9.9941406 L 9.1054688,18.611328 A 0.73257327,0.73257327 0 0 0 8.40625,18.097656 H 3.8242188 a 0.73257327,0.73257327 0 0 0 -0.7011719,0.521485 l -1.0078125,3.359375 a 0.73250002,0.73250002 0 0 0 0.4921875,0.912109 0.73250002,0.73250002 0 0 0 0.9121093,-0.490234 L 4.3691406,19.5625 h 3.5 l 0.8867188,2.845703 a 0.73257327,0.73257327 0 0 0 0.6992187,0.513672 h 2.1210939 a 0.73257327,0.73257327 0 0 0 0.695312,-0.960937 L 7.9414062,8.7636719 A 0.73257327,0.73257327 0 0 0 7.2460938,8.2597656 Z m 8.1074216,0 A 0.73250002,0.73250002 0 0 0 12.443359,8.9921875 V 22.189453 a 0.73257327,0.73257327 0 0 0 0.732422,0.732422 h 6.451172 a 0.73250002,0.73250002 0 0 0 0.732422,-0.732422 0.73250002,0.73250002 0 0 0 -0.732422,-0.732422 h -5.71875 V 8.9921875 A 0.73250002,0.73250002 0 0 0 13.175781,8.2597656 Z m 1.933594,0 A 0.73250002,0.73250002 0 0 0 14.376953,8.9921875 V 20.339844 a 0.73257327,0.73257327 0 0 0 0.732422,0.732422 h 4.517578 a 0.73250002,0.73250002 0 0 0 0.732422,-0.732422 0.73250002,0.73250002 0 0 0 -0.732422,-0.732422 H 15.841797 V 8.9921875 A 0.73250002,0.73250002 0 0 0 15.109375,8.2597656 Z m 6.199219,0 A 0.73250002,0.73250002 0 0 0 20.576172,8.9921875 V 22.189453 a 0.73257327,0.73257327 0 0 0 0.732422,0.732422 h 6.451172 a 0.73250002,0.73250002 0 0 0 0.732422,-0.732422 0.73250002,0.73250002 0 0 0 -0.732422,-0.732422 h -5.71875 V 8.9921875 A 0.73250002,0.73250002 0 0 0 21.308594,8.2597656 Z m 1.933594,0 A 0.73250002,0.73250002 0 0 0 22.509766,8.9921875 V 20.339844 a 0.73257327,0.73257327 0 0 0 0.732422,0.732422 h 4.517578 a 0.73250002,0.73250002 0 0 0 0.732422,-0.732422 0.73250002,0.73250002 0 0 0 -0.732422,-0.732422 H 23.974609 V 8.9921875 A 0.73250002,0.73250002 0 0 0 23.242188,8.2597656 Z m 6.199218,0 A 0.73257327,0.73257327 0 0 0 28.708984,8.9921875 V 22.189453 a 0.73257327,0.73257327 0 0 0 0.732422,0.732422 h 6.539063 a 0.73250002,0.73250002 0 0 0 0.734375,-0.732422 0.73250002,0.73250002 0 0 0 -0.734375,-0.732422 H 30.173828 V 9.7246094 h 5.546875 A 0.73250002,0.73250002 0 0 0 36.453125,8.9921875 0.73250002,0.73250002 0 0 0 35.720703,8.2597656 Z m 8.611328,0 A 0.73250002,0.73250002 0 0 0 37.320312,8.9921875 V 22.189453 a 0.73250002,0.73250002 0 0 0 0.732422,0.732422 0.73250002,0.73250002 0 0 0 0.732422,-0.732422 V 8.9921875 A 0.73250002,0.73250002 0 0 0 38.052734,8.2597656 Z m 2.232422,0 a 0.73250002,0.73250002 0 0 0 -0.34375,0.095703 0.73250002,0.73250002 0 0 0 -0.27539,0.9980468 l 5.378906,9.4707036 a 0.73257327,0.73257327 0 0 0 0.0039,0.0039 c 0.222745,0.384491 0.367699,0.661744 0.402344,0.740234 a 0.73257327,0.73257327 0 0 0 0.669922,0.435547 h 0.03125 a 0.73257327,0.73257327 0 0 0 0.724609,-0.84375 c -0.04068,-0.262622 -0.07227,-0.845471 -0.07227,-1.664062 V 8.9921875 A 0.73250002,0.73250002 0 0 0 46.072266,8.2597656 0.73250002,0.73250002 0 0 0 45.339844,8.9921875 V 16.376953 L 40.941406,8.6308594 a 0.73250002,0.73250002 0 0 0 -0.65625,-0.3710938 z m 7.646485,0 A 0.73250002,0.73250002 0 0 0 47.199219,8.9921875 V 22.189453 a 0.73250002,0.73250002 0 0 0 0.732422,0.732422 0.73250002,0.73250002 0 0 0 0.732421,-0.732422 V 8.9921875 A 0.73250002,0.73250002 0 0 0 47.931641,8.2597656 Z m -8.074219,2.7324224 a 0.73257327,0.73257327 0 0 0 -0.72461,0.84375 c 0.02509,0.163418 0.05664,0.78808 0.05664,1.703124 v 8.650391 a 0.73250002,0.73250002 0 0 0 0.732422,0.732422 0.73250002,0.73250002 0 0 0 0.732422,-0.732422 v -7.53125 l 4.53125,7.896485 a 0.73250002,0.73250002 0 0 0 1,0.269531 0.73250002,0.73250002 0 0 0 0.269531,-1 L 40.890625,12.125 c -0.118732,-0.206921 -0.21589,-0.419771 -0.292969,-0.640625 A 0.73257327,0.73257327 0 0 0 39.90625,10.992188 Z M 31.375,15.705078 A 0.73257327,0.73257327 0 0 0 30.642578,16.4375 v 3.902344 A 0.73257327,0.73257327 0 0 0 31.375,21.072266 h 4.605469 a 0.73250002,0.73250002 0 0 0 0.734375,-0.732422 0.73250002,0.73250002 0 0 0 -0.734375,-0.732422 h -3.873047 v -2.4375 h 3.273437 A 0.73250002,0.73250002 0 0 0 36.113281,16.4375 0.73250002,0.73250002 0 0 0 35.380859,15.705078 Z m 13.169922,11.181641 a 0.73250002,0.73250002 0 0 0 -0.732422,0.732422 0.73250002,0.73250002 0 0 0 0.732422,0.732421 c 0.87411,0 1.501923,0.178343 2.070312,0.390626 v 0.636718 c -0.611562,-0.23567 -1.19443,-0.568359 -1.867187,-0.568359 -1.438873,0 -2.715215,0.565651 -3.626953,1.626953 a 0.73257327,0.73257327 0 0 0 -0.002,0.002 c -0.910711,1.067466 -1.345703,2.484317 -1.345703,4.136719 0,1.576901 0.409671,2.933482 1.271484,3.953125 a 0.73257327,0.73257327 0 0 0 0,0.002 c 0.858505,1.008527 2.075761,1.544922 3.443359,1.544922 0.763857,0 1.464164,-0.178141 2.126953,-0.441406 v 0.851562 a 0.73250002,0.73250002 0 0 0 0.732422,0.732422 0.73250002,0.73250002 0 0 0 0.732422,-0.732422 v -2.02539 a 0.73257327,0.73257327 0 0 0 -1.164062,-0.591797 c -0.679075,0.495624 -1.459027,0.742187 -2.427735,0.742187 -1.015574,0 -1.722277,-0.321825 -2.326172,-1.03125 -0.5999,-0.710457 -0.921875,-1.673354 -0.921875,-3.003906 0,-1.401893 0.344083,-2.424826 0.992188,-3.185547 l 0.002,-0.002 c 0.65856,-0.765508 1.429621,-1.113281 2.513672,-1.113281 0.811928,0 1.519272,0.214433 2.191406,0.666015 a 0.73257327,0.73257327 0 0 0 1.140625,-0.607422 v -2.171875 a 0.73257327,0.73257327 0 0 0 -0.412109,-0.658203 c -0.873324,-0.426047 -1.918001,-0.617187 -3.123047,-0.617187 z m -30.148438,0.220703 a 0.73250002,0.73250002 0 0 0 -0.210937,0.0332 0.73250002,0.73250002 0 0 0 -0.482422,0.917969 l 4.111328,13.197265 a 0.73250002,0.73250002 0 0 0 0.917969,0.480469 0.73250002,0.73250002 0 0 0 0.480469,-0.916016 L 15.101562,27.623047 a 0.73250002,0.73250002 0 0 0 -0.705078,-0.515625 z m 2.128907,0 a 0.73250002,0.73250002 0 0 0 -0.212891,0.0293 0.73250002,0.73250002 0 0 0 -0.501953,0.90625 L 18.6875,38.054688 a 0.73257327,0.73257327 0 0 0 0,0.002 c 0.07769,0.269195 0.142355,0.602076 0.1875,0.99414 a 0.73257327,0.73257327 0 0 0 0.728516,0.648438 h 0.03125 a 0.73257327,0.73257327 0 0 0 0.728515,-0.654297 c 0.03231,-0.298084 0.101959,-0.633555 0.210938,-1.003906 l 2.939453,-9.994141 a 0.73250002,0.73250002 0 0 0 -0.496094,-0.910156 0.73250002,0.73250002 0 0 0 -0.908203,0.496093 l -2.474609,8.41211 -2.416016,-8.40625 a 0.73250002,0.73250002 0 0 0 -0.693359,-0.53125 z m 8.341797,0 a 0.73250002,0.73250002 0 0 0 -0.707032,0.511719 l -4.183594,13.197265 a 0.73250002,0.73250002 0 0 0 0.476563,0.919922 0.73250002,0.73250002 0 0 0 0.919922,-0.476562 l 4.183594,-13.199219 a 0.73250002,0.73250002 0 0 0 -0.476563,-0.917969 0.73250002,0.73250002 0 0 0 -0.21289,-0.03516 z m 1.527343,0 a 0.73250002,0.73250002 0 0 0 -0.732422,0.732422 v 13.197265 a 0.73250002,0.73250002 0 0 0 0.732422,0.732422 0.73250002,0.73250002 0 0 0 0.732422,-0.732422 V 27.839844 a 0.73250002,0.73250002 0 0 0 -0.732422,-0.732422 z m 1.990235,0 a 0.73250002,0.73250002 0 0 0 -0.732422,0.732422 v 13.197265 a 0.73250002,0.73250002 0 0 0 0.732422,0.732422 0.73250002,0.73250002 0 0 0 0.732422,-0.732422 V 27.839844 a 0.73250002,0.73250002 0 0 0 -0.732422,-0.732422 z m 2.86914,0 a 0.73250002,0.73250002 0 0 0 -0.732422,0.732422 v 13.197265 a 0.73257327,0.73257327 0 0 0 0.732422,0.732422 h 6.449219 a 0.73250002,0.73250002 0 0 0 0.732422,-0.732422 0.73250002,0.73250002 0 0 0 -0.732422,-0.732421 H 31.986328 V 27.839844 a 0.73250002,0.73250002 0 0 0 -0.732422,-0.732422 z m 1.933594,0 a 0.73250002,0.73250002 0 0 0 -0.732422,0.732422 V 39.1875 a 0.73257327,0.73257327 0 0 0 0.732422,0.732422 h 4.515625 A 0.73250002,0.73250002 0 0 0 38.435547,39.1875 0.73250002,0.73250002 0 0 0 37.703125,38.455078 H 33.919922 V 27.839844 A 0.73250002,0.73250002 0 0 0 33.1875,27.107422 Z m 16.369141,0 a 0.73250002,0.73250002 0 0 0 -0.732422,0.732422 v 13.197265 a 0.73250002,0.73250002 0 0 0 0.732422,0.732422 0.73250002,0.73250002 0 0 0 0.732421,-0.732422 V 27.839844 a 0.73250002,0.73250002 0 0 0 -0.732421,-0.732422 z m 1.933593,0 a 0.73250002,0.73250002 0 0 0 -0.732422,0.732422 v 5.550781 a 0.73257327,0.73257327 0 0 0 0.732422,0.732422 h 5.484375 a 0.73257327,0.73257327 0 0 0 0.732422,-0.732422 v -5.550781 a 0.73250002,0.73250002 0 0 0 -0.732422,-0.732422 0.73250002,0.73250002 0 0 0 -0.732421,0.732422 v 4.816406 h -4.019532 v -4.816406 a 0.73250002,0.73250002 0 0 0 -0.732422,-0.732422 z m 7.425782,0 a 0.73250002,0.73250002 0 0 0 -0.732422,0.732422 v 13.197265 a 0.73250002,0.73250002 0 0 0 0.732422,0.732422 0.73250002,0.73250002 0 0 0 0.732422,-0.732422 V 27.839844 a 0.73250002,0.73250002 0 0 0 -0.732422,-0.732422 z m 2.876953,0 a 0.73257327,0.73257327 0 0 0 -0.732422,0.732422 v 13.197265 a 0.73257327,0.73257327 0 0 0 0.732422,0.732422 h 6.539062 a 0.73250002,0.73250002 0 0 0 0.734375,-0.732422 0.73250002,0.73250002 0 0 0 -0.734375,-0.732421 h -5.80664 V 28.572266 h 5.546875 a 0.73250002,0.73250002 0 0 0 0.732422,-0.732422 0.73250002,0.73250002 0 0 0 -0.732422,-0.732422 z m 7.960937,0 a 0.73250002,0.73250002 0 0 0 -0.732422,0.732422 0.73250002,0.73250002 0 0 0 0.732422,0.732422 h 7.863282 v 0.01758 l -3.050782,4.966797 -3.226562,5.248047 a 0.73257327,0.73257327 0 0 0 0.625,1.115234 h 6.304687 A 0.73250002,0.73250002 0 0 0 79.001953,39.1875 0.73250002,0.73250002 0 0 0 78.269531,38.455078 h -4.996093 l 2.541015,-4.132812 3.160156,-5.140625 a 0.73257327,0.73257327 0 0 0 0.107422,-0.384766 v -0.957031 a 0.73257327,0.73257327 0 0 0 -0.732422,-0.732422 z m -6.027344,1.859375 a 0.73257327,0.73257327 0 0 0 -0.732421,0.732422 v 3.736328 a 0.73257327,0.73257327 0 0 0 0.732421,0.732422 H 67 v 0.384765 h -3.273438 a 0.73257327,0.73257327 0 0 0 -0.732421,0.732422 V 39.1875 a 0.73257327,0.73257327 0 0 0 0.732421,0.732422 h 4.605469 A 0.73250002,0.73250002 0 0 0 69.066406,39.1875 0.73250002,0.73250002 0 0 0 68.332031,38.455078 h -3.873047 v -2.4375 h 3.273438 a 0.73257327,0.73257327 0 0 0 0.732422,-0.732422 v -1.849609 a 0.73257327,0.73257327 0 0 0 -0.732422,-0.732422 h -3.273438 v -2.271484 h 3.613282 a 0.73250002,0.73250002 0 0 0 0.732422,-0.732422 0.73250002,0.73250002 0 0 0 -0.732422,-0.732422 z M 51.490234,34.580078 A 0.73257327,0.73257327 0 0 0 50.757812,35.3125 v 5.724609 a 0.73250002,0.73250002 0 0 0 0.732422,0.732422 0.73250002,0.73250002 0 0 0 0.732422,-0.732422 v -4.992187 h 4.019532 v 4.992187 a 0.73250002,0.73250002 0 0 0 0.732421,0.732422 0.73250002,0.73250002 0 0 0 0.732422,-0.732422 V 35.3125 a 0.73257327,0.73257327 0 0 0 -0.732422,-0.732422 z"
         id="path924"
         transform="rotate(-13.131726,39.527298,25.015107)" />
      <path
         style="color:#000000;font-style:normal;font-variant:normal;font-weight:bold;font-stretch:normal;font-size:17.7092px;line-height:1;font-family:'Yu Gothic UI';-inkscape-font-specification:'Yu Gothic UI Bold';font-variant-ligatures:normal;font-variant-position:normal;font-variant-caps:normal;font-variant-numeric:normal;font-variant-alternates:normal;font-variant-east-asian:normal;font-feature-settings:normal;font-variation-settings:normal;text-indent:0;text-align:start;text-decoration:none;text-decoration-line:none;text-decoration-style:solid;text-decoration-color:#000000;letter-spacing:normal;word-spacing:normal;text-transform:none;writing-mode:lr-tb;direction:ltr;text-orientation:mixed;dominant-baseline:auto;baseline-shift:baseline;text-anchor:start;white-space:normal;shape-padding:0;shape-margin:0;inline-size:0;clip-rule:nonzero;display:inline;overflow:visible;visibility:visible;opacity:1;isolation:auto;mix-blend-mode:normal;color-interpolation:sRGB;color-interpolation-filters:linearRGB;solid-color:#000000;solid-opacity:1;vector-effect:none;fill:#f92a81;fill-opacity:1;fill-rule:nonzero;stroke:none;stroke-linecap:round;stroke-linejoin:round;stroke-miterlimit:4;stroke-dasharray:none;stroke-dashoffset:0;stroke-opacity:1;filter:url(#filter1074);color-rendering:auto;image-rendering:auto;shape-rendering:auto;text-rendering:auto;enable-background:accumulate;stop-color:#000000;stop-opacity:1"
         d="M 5.0683594,8.2597656 A 0.73257327,0.73257327 0 0 0 4.3730469,8.7617188 L 0.00976563,21.958984 A 0.73250002,0.73250002 0 0 0 0.47460938,22.884766 0.73250002,0.73250002 0 0 0 1.4003906,22.419922 L 5.5976562,9.7246094 H 6.7148438 L 10.564453,21.457031 H 9.9941406 L 9.1054688,18.611328 A 0.73257327,0.73257327 0 0 0 8.40625,18.097656 H 3.8242188 a 0.73257327,0.73257327 0 0 0 -0.7011719,0.521485 l -1.0078125,3.359375 a 0.73250002,0.73250002 0 0 0 0.4921875,0.912109 0.73250002,0.73250002 0 0 0 0.9121093,-0.490234 L 4.3691406,19.5625 h 3.5 l 0.8867188,2.845703 a 0.73257327,0.73257327 0 0 0 0.6992187,0.513672 h 2.1210939 a 0.73257327,0.73257327 0 0 0 0.695312,-0.960937 L 7.9414062,8.7636719 A 0.73257327,0.73257327 0 0 0 7.2460938,8.2597656 Z m 8.1074216,0 A 0.73250002,0.73250002 0 0 0 12.443359,8.9921875 V 22.189453 a 0.73257327,0.73257327 0 0 0 0.732422,0.732422 h 6.451172 a 0.73250002,0.73250002 0 0 0 0.732422,-0.732422 0.73250002,0.73250002 0 0 0 -0.732422,-0.732422 h -5.71875 V 8.9921875 A 0.73250002,0.73250002 0 0 0 13.175781,8.2597656 Z m 1.933594,0 A 0.73250002,0.73250002 0 0 0 14.376953,8.9921875 V 20.339844 a 0.73257327,0.73257327 0 0 0 0.732422,0.732422 h 4.517578 a 0.73250002,0.73250002 0 0 0 0.732422,-0.732422 0.73250002,0.73250002 0 0 0 -0.732422,-0.732422 H 15.841797 V 8.9921875 A 0.73250002,0.73250002 0 0 0 15.109375,8.2597656 Z m 6.199219,0 A 0.73250002,0.73250002 0 0 0 20.576172,8.9921875 V 22.189453 a 0.73257327,0.73257327 0 0 0 0.732422,0.732422 h 6.451172 a 0.73250002,0.73250002 0 0 0 0.732422,-0.732422 0.73250002,0.73250002 0 0 0 -0.732422,-0.732422 h -5.71875 V 8.9921875 A 0.73250002,0.73250002 0 0 0 21.308594,8.2597656 Z m 1.933594,0 A 0.73250002,0.73250002 0 0 0 22.509766,8.9921875 V 20.339844 a 0.73257327,0.73257327 0 0 0 0.732422,0.732422 h 4.517578 a 0.73250002,0.73250002 0 0 0 0.732422,-0.732422 0.73250002,0.73250002 0 0 0 -0.732422,-0.732422 H 23.974609 V 8.9921875 A 0.73250002,0.73250002 0 0 0 23.242188,8.2597656 Z m 6.199218,0 A 0.73257327,0.73257327 0 0 0 28.708984,8.9921875 V 22.189453 a 0.73257327,0.73257327 0 0 0 0.732422,0.732422 h 6.539063 a 0.73250002,0.73250002 0 0 0 0.734375,-0.732422 0.73250002,0.73250002 0 0 0 -0.734375,-0.732422 H 30.173828 V 9.7246094 h 5.546875 A 0.73250002,0.73250002 0 0 0 36.453125,8.9921875 0.73250002,0.73250002 0 0 0 35.720703,8.2597656 Z m 8.611328,0 A 0.73250002,0.73250002 0 0 0 37.320312,8.9921875 V 22.189453 a 0.73250002,0.73250002 0 0 0 0.732422,0.732422 0.73250002,0.73250002 0 0 0 0.732422,-0.732422 V 8.9921875 A 0.73250002,0.73250002 0 0 0 38.052734,8.2597656 Z m 2.232422,0 a 0.73250002,0.73250002 0 0 0 -0.34375,0.095703 0.73250002,0.73250002 0 0 0 -0.27539,0.9980468 l 5.378906,9.4707036 a 0.73257327,0.73257327 0 0 0 0.0039,0.0039 c 0.222745,0.384491 0.367699,0.661744 0.402344,0.740234 a 0.73257327,0.73257327 0 0 0 0.669922,0.435547 h 0.03125 a 0.73257327,0.73257327 0 0 0 0.724609,-0.84375 c -0.04068,-0.262622 -0.07227,-0.845471 -0.07227,-1.664062 V 8.9921875 A 0.73250002,0.73250002 0 0 0 46.072266,8.2597656 0.73250002,0.73250002 0 0 0 45.339844,8.9921875 V 16.376953 L 40.941406,8.6308594 a 0.73250002,0.73250002 0 0 0 -0.65625,-0.3710938 z m 7.646485,0 A 0.73250002,0.73250002 0 0 0 47.199219,8.9921875 V 22.189453 a 0.73250002,0.73250002 0 0 0 0.732422,0.732422 0.73250002,0.73250002 0 0 0 0.732421,-0.732422 V 8.9921875 A 0.73250002,0.73250002 0 0 0 47.931641,8.2597656 Z m -8.074219,2.7324224 a 0.73257327,0.73257327 0 0 0 -0.72461,0.84375 c 0.02509,0.163418 0.05664,0.78808 0.05664,1.703124 v 8.650391 a 0.73250002,0.73250002 0 0 0 0.732422,0.732422 0.73250002,0.73250002 0 0 0 0.732422,-0.732422 v -7.53125 l 4.53125,7.896485 a 0.73250002,0.73250002 0 0 0 1,0.269531 0.73250002,0.73250002 0 0 0 0.269531,-1 L 40.890625,12.125 c -0.118732,-0.206921 -0.21589,-0.419771 -0.292969,-0.640625 A 0.73257327,0.73257327 0 0 0 39.90625,10.992188 Z M 31.375,15.705078 A 0.73257327,0.73257327 0 0 0 30.642578,16.4375 v 3.902344 A 0.73257327,0.73257327 0 0 0 31.375,21.072266 h 4.605469 a 0.73250002,0.73250002 0 0 0 0.734375,-0.732422 0.73250002,0.73250002 0 0 0 -0.734375,-0.732422 h -3.873047 v -2.4375 h 3.273437 A 0.73250002,0.73250002 0 0 0 36.113281,16.4375 0.73250002,0.73250002 0 0 0 35.380859,15.705078 Z m 13.169922,11.181641 a 0.73250002,0.73250002 0 0 0 -0.732422,0.732422 0.73250002,0.73250002 0 0 0 0.732422,0.732421 c 0.87411,0 1.501923,0.178343 2.070312,0.390626 v 0.636718 c -0.611562,-0.23567 -1.19443,-0.568359 -1.867187,-0.568359 -1.438873,0 -2.715215,0.565651 -3.626953,1.626953 a 0.73257327,0.73257327 0 0 0 -0.002,0.002 c -0.910711,1.067466 -1.345703,2.484317 -1.345703,4.136719 0,1.576901 0.409671,2.933482 1.271484,3.953125 a 0.73257327,0.73257327 0 0 0 0,0.002 c 0.858505,1.008527 2.075761,1.544922 3.443359,1.544922 0.763857,0 1.464164,-0.178141 2.126953,-0.441406 v 0.851562 a 0.73250002,0.73250002 0 0 0 0.732422,0.732422 0.73250002,0.73250002 0 0 0 0.732422,-0.732422 v -2.02539 a 0.73257327,0.73257327 0 0 0 -1.164062,-0.591797 c -0.679075,0.495624 -1.459027,0.742187 -2.427735,0.742187 -1.015574,0 -1.722277,-0.321825 -2.326172,-1.03125 -0.5999,-0.710457 -0.921875,-1.673354 -0.921875,-3.003906 0,-1.401893 0.344083,-2.424826 0.992188,-3.185547 l 0.002,-0.002 c 0.65856,-0.765508 1.429621,-1.113281 2.513672,-1.113281 0.811928,0 1.519272,0.214433 2.191406,0.666015 a 0.73257327,0.73257327 0 0 0 1.140625,-0.607422 v -2.171875 a 0.73257327,0.73257327 0 0 0 -0.412109,-0.658203 c -0.873324,-0.426047 -1.918001,-0.617187 -3.123047,-0.617187 z m -30.148438,0.220703 a 0.73250002,0.73250002 0 0 0 -0.210937,0.0332 0.73250002,0.73250002 0 0 0 -0.482422,0.917969 l 4.111328,13.197265 a 0.73250002,0.73250002 0 0 0 0.917969,0.480469 0.73250002,0.73250002 0 0 0 0.480469,-0.916016 L 15.101562,27.623047 a 0.73250002,0.73250002 0 0 0 -0.705078,-0.515625 z m 2.128907,0 a 0.73250002,0.73250002 0 0 0 -0.212891,0.0293 0.73250002,0.73250002 0 0 0 -0.501953,0.90625 L 18.6875,38.054688 a 0.73257327,0.73257327 0 0 0 0,0.002 c 0.07769,0.269195 0.142355,0.602076 0.1875,0.99414 a 0.73257327,0.73257327 0 0 0 0.728516,0.648438 h 0.03125 a 0.73257327,0.73257327 0 0 0 0.728515,-0.654297 c 0.03231,-0.298084 0.101959,-0.633555 0.210938,-1.003906 l 2.939453,-9.994141 a 0.73250002,0.73250002 0 0 0 -0.496094,-0.910156 0.73250002,0.73250002 0 0 0 -0.908203,0.496093 l -2.474609,8.41211 -2.416016,-8.40625 a 0.73250002,0.73250002 0 0 0 -0.693359,-0.53125 z m 8.341797,0 a 0.73250002,0.73250002 0 0 0 -0.707032,0.511719 l -4.183594,13.197265 a 0.73250002,0.73250002 0 0 0 0.476563,0.919922 0.73250002,0.73250002 0 0 0 0.919922,-0.476562 l 4.183594,-13.199219 a 0.73250002,0.73250002 0 0 0 -0.476563,-0.917969 0.73250002,0.73250002 0 0 0 -0.21289,-0.03516 z m 1.527343,0 a 0.73250002,0.73250002 0 0 0 -0.732422,0.732422 v 13.197265 a 0.73250002,0.73250002 0 0 0 0.732422,0.732422 0.73250002,0.73250002 0 0 0 0.732422,-0.732422 V 27.839844 a 0.73250002,0.73250002 0 0 0 -0.732422,-0.732422 z m 1.990235,0 a 0.73250002,0.73250002 0 0 0 -0.732422,0.732422 v 13.197265 a 0.73250002,0.73250002 0 0 0 0.732422,0.732422 0.73250002,0.73250002 0 0 0 0.732422,-0.732422 V 27.839844 a 0.73250002,0.73250002 0 0 0 -0.732422,-0.732422 z m 2.86914,0 a 0.73250002,0.73250002 0 0 0 -0.732422,0.732422 v 13.197265 a 0.73257327,0.73257327 0 0 0 0.732422,0.732422 h 6.449219 a 0.73250002,0.73250002 0 0 0 0.732422,-0.732422 0.73250002,0.73250002 0 0 0 -0.732422,-0.732421 H 31.986328 V 27.839844 a 0.73250002,0.73250002 0 0 0 -0.732422,-0.732422 z m 1.933594,0 a 0.73250002,0.73250002 0 0 0 -0.732422,0.732422 V 39.1875 a 0.73257327,0.73257327 0 0 0 0.732422,0.732422 h 4.515625 A 0.73250002,0.73250002 0 0 0 38.435547,39.1875 0.73250002,0.73250002 0 0 0 37.703125,38.455078 H 33.919922 V 27.839844 A 0.73250002,0.73250002 0 0 0 33.1875,27.107422 Z m 16.369141,0 a 0.73250002,0.73250002 0 0 0 -0.732422,0.732422 v 13.197265 a 0.73250002,0.73250002 0 0 0 0.732422,0.732422 0.73250002,0.73250002 0 0 0 0.732421,-0.732422 V 27.839844 a 0.73250002,0.73250002 0 0 0 -0.732421,-0.732422 z m 1.933593,0 a 0.73250002,0.73250002 0 0 0 -0.732422,0.732422 v 5.550781 a 0.73257327,0.73257327 0 0 0 0.732422,0.732422 h 5.484375 a 0.73257327,0.73257327 0 0 0 0.732422,-0.732422 v -5.550781 a 0.73250002,0.73250002 0 0 0 -0.732422,-0.732422 0.73250002,0.73250002 0 0 0 -0.732421,0.732422 v 4.816406 h -4.019532 v -4.816406 a 0.73250002,0.73250002 0 0 0 -0.732422,-0.732422 z m 7.425782,0 a 0.73250002,0.73250002 0 0 0 -0.732422,0.732422 v 13.197265 a 0.73250002,0.73250002 0 0 0 0.732422,0.732422 0.73250002,0.73250002 0 0 0 0.732422,-0.732422 V 27.839844 a 0.73250002,0.73250002 0 0 0 -0.732422,-0.732422 z m 2.876953,0 a 0.73257327,0.73257327 0 0 0 -0.732422,0.732422 v 13.197265 a 0.73257327,0.73257327 0 0 0 0.732422,0.732422 h 6.539062 a 0.73250002,0.73250002 0 0 0 0.734375,-0.732422 0.73250002,0.73250002 0 0 0 -0.734375,-0.732421 h -5.80664 V 28.572266 h 5.546875 a 0.73250002,0.73250002 0 0 0 0.732422,-0.732422 0.73250002,0.73250002 0 0 0 -0.732422,-0.732422 z m 7.960937,0 a 0.73250002,0.73250002 0 0 0 -0.732422,0.732422 0.73250002,0.73250002 0 0 0 0.732422,0.732422 h 7.863282 v 0.01758 l -3.050782,4.966797 -3.226562,5.248047 a 0.73257327,0.73257327 0 0 0 0.625,1.115234 h 6.304687 A 0.73250002,0.73250002 0 0 0 79.001953,39.1875 0.73250002,0.73250002 0 0 0 78.269531,38.455078 h -4.996093 l 2.541015,-4.132812 3.160156,-5.140625 a 0.73257327,0.73257327 0 0 0 0.107422,-0.384766 v -0.957031 a 0.73257327,0.73257327 0 0 0 -0.732422,-0.732422 z m -6.027344,1.859375 a 0.73257327,0.73257327 0 0 0 -0.732421,0.732422 v 3.736328 a 0.73257327,0.73257327 0 0 0 0.732421,0.732422 H 67 v 0.384765 h -3.273438 a 0.73257327,0.73257327 0 0 0 -0.732421,0.732422 V 39.1875 a 0.73257327,0.73257327 0 0 0 0.732421,0.732422 h 4.605469 A 0.73250002,0.73250002 0 0 0 69.066406,39.1875 0.73250002,0.73250002 0 0 0 68.332031,38.455078 h -3.873047 v -2.4375 h 3.273438 a 0.73257327,0.73257327 0 0 0 0.732422,-0.732422 v -1.849609 a 0.73257327,0.73257327 0 0 0 -0.732422,-0.732422 h -3.273438 v -2.271484 h 3.613282 a 0.73250002,0.73250002 0 0 0 0.732422,-0.732422 0.73250002,0.73250002 0 0 0 -0.732422,-0.732422 z M 51.490234,34.580078 A 0.73257327,0.73257327 0 0 0 50.757812,35.3125 v 5.724609 a 0.73250002,0.73250002 0 0 0 0.732422,0.732422 0.73250002,0.73250002 0 0 0 0.732422,-0.732422 v -4.992187 h 4.019532 v 4.992187 a 0.73250002,0.73250002 0 0 0 0.732421,0.732422 0.73250002,0.73250002 0 0 0 0.732422,-0.732422 V 35.3125 a 0.73257327,0.73257327 0 0 0 -0.732422,-0.732422 z"
         id="path893"
         transform="rotate(-13.131726,39.527298,25.015107)" />
      <path
         id="path879"
         style="font-style:normal;font-variant:normal;font-weight:bold;font-stretch:normal;font-size:17.7092px;line-height:1;font-family:'Yu Gothic UI';-inkscape-font-specification:'Yu Gothic UI Bold';fill:none;stroke:#f9e0e7;stroke-width:0.565;stroke-linecap:round;stroke-linejoin:round;stroke-miterlimit:4;stroke-dasharray:none;stroke-opacity:1"
         d="m 69.606139,20.898792 8.370893,-1.952855 0.217454,0.932116 -1.909352,5.725598 -1.948846,5.844026 6.139711,-1.43234 m -12.085279,-6.924012 -4.232919,0.987503 0.848908,3.638834 3.900614,-0.909978 0.420272,1.801491 -3.900614,0.909979 0.886543,3.800162 4.486102,-1.046568 m 0.420272,1.801493 -6.369159,1.485867 -2.998357,-12.852434 6.115975,-1.426803 m -16.148389,3.767276 1.260816,5.404475 5.340599,-1.245914 -1.260816,-5.404476 m 1.890968,-0.441145 2.998358,12.852434 m -1.890968,0.441146 -1.300543,-5.574767 -5.340599,1.245914 1.300544,5.574767 m -1.883056,0.4393 -2.998358,-12.852435 m -4.931883,0.923755 c 1.097131,-0.255952 2.048132,-0.291953 2.853002,-0.108006 l 0.493453,2.115183 c -0.884704,-0.33543 -1.78859,-0.395474 -2.711656,-0.180132 -1.228997,0.286715 -2.122062,0.964429 -2.679191,2.033148 -0.551855,1.067486 -0.654238,2.345128 -0.307147,3.832927 0.330363,1.416099 0.949857,2.46233 1.858482,3.138697 0.907231,0.670392 1.941059,0.87023 3.101486,0.599513 1.070757,-0.249798 1.932189,-0.753177 2.584295,-1.510136 l 0.46,1.971783 m -16.663517,-9.097449 2.578087,11.050943 4.39907,-1.026264 m 0.420272,1.801491 -6.282126,1.465564 -2.998358,-12.852434 m -2.792933,0.651566 2.998357,12.852434 m -1.93844,0.452223 -2.998358,-12.852435 M 22.703528,45.392676 15.7017,33.474216 m 2.057119,-0.479908 5.075752,9.097946 c 0.162157,0.289786 0.315057,0.635283 0.458712,1.036489 l 0.03165,-0.0073 c -0.04253,-0.349195 -0.05177,-0.734505 -0.02774,-1.155933 l 0.59342,-10.401613 m 1.993826,-0.465184 -1.076321,13.803021 M 37.449709,22.598032 34.451351,9.7455977 m 2.191623,-0.5112861 7.389284,8.0006444 c 0.310748,0.330723 0.514498,0.560404 0.611248,0.68904 l 0.03165,-0.0073 c -0.132207,-0.328317 -0.293084,-0.898764 -0.48266,-1.711377 L 42.2605,7.9237929 M 44.072348,7.5011051 47.070702,20.35354 m -2.057118,0.479907 -7.623533,-8.182256 C 37.197152,12.44418 37.025898,12.22267 36.876289,11.986661 l -0.04747,0.01106 c 0.106316,0.265011 0.264724,0.848634 0.475209,1.750873 l 1.965451,8.424888 m -5.729637,-4.56985 -3.900615,0.909979 0.886544,3.800163 4.486103,-1.046568 m 0.420271,1.801491 -6.369158,1.485869 -2.998356,-12.852422 6.115975,-1.426802 m -12.152828,2.835146 2.578085,11.050943 4.399071,-1.026264 m 0.420272,1.801491 -6.282127,1.465564 -2.998358,-12.852434 m -6.036853,1.408344 2.578086,11.050943 4.399071,-1.026264 m 0.420272,1.801492 -6.282125,1.465563 -2.998359,-12.852434 M 1.0782557,31.083167 2.3286404,17.239539 4.4490557,16.744865 11.664508,28.613489 9.5994772,29.095243 7.815649,26.061983 3.3532822,27.103014 3.1353751,30.60326" />
    </g>
  </g>
</svg>
