<svg xmlns="http://www.w3.org/2000/svg" version="1.1" viewBox="0 -33 512.00004 512">
<g id="surface1">
<path d="M 299.550781 179.84375 C 298.992188 179.019531 298.425781 178.210938 297.859375 177.398438 L 294.929688 173.214844 L 292.699219 177.804688 C 291.65625 179.953125 290.207031 181.847656 288.792969 183.699219 C 286.601562 186.542969 284.335938 189.484375 283.539062 193.453125 C 282.496094 198.613281 283.976562 204.011719 285.285156 208.769531 L 297.566406 253.589844 C 299.105469 259.214844 300.695312 264.121094 304.550781 267.21875 C 307.566406 269.632812 311.535156 270.476562 315.445312 271.304688 C 318.113281 271.863281 321.132812 272.496094 323.757812 273.722656 L 328.105469 275.761719 L 328.027344 270.960938 C 327.523438 238.507812 317.410156 206.148438 299.550781 179.84375 Z M 299.550781 179.84375 " style=" stroke:none;fill-rule:nonzero;fill:rgb(35.686275%,36.470588%,42.745098%);fill-opacity:1;" />
<path d="M 261.082031 325.324219 L 234.011719 318.605469 C 232.4375 318.214844 230.484375 317.566406 228.59375 316.925781 C 224.558594 315.578125 219.03125 313.730469 214.933594 313.730469 C 213.492188 313.730469 212.292969 313.953125 211.277344 314.402344 C 206.832031 316.359375 202.214844 321.441406 198.097656 325.96875 L 197.902344 326.183594 C 196.105469 328.160156 194.410156 330.023438 192.828125 331.507812 L 149.363281 372.25 L 183.867188 407.929688 C 185.867188 409.992188 188.359375 412.5625 191.390625 413.566406 C 192.433594 413.910156 193.566406 414.082031 194.757812 414.082031 C 198.148438 414.082031 201.707031 412.6875 205.066406 411.253906 L 235.996094 398.054688 C 241.976562 395.507812 248.753906 392.617188 253.363281 387.394531 C 257.6875 382.515625 259.6875 376.214844 261.617188 370.125 L 270.929688 340.832031 C 271.976562 337.539062 272.757812 334.59375 271.722656 331.925781 C 270.25 328.070312 265.738281 326.472656 261.082031 325.324219 Z M 261.082031 325.324219 " style=" stroke:none;fill-rule:nonzero;fill:rgb(35.686275%,36.470588%,42.745098%);fill-opacity:1;" />
<path d="M 165.75 239.898438 C 166.878906 239.898438 167.859375 239.714844 168.777344 239.324219 C 170.613281 238.515625 172.003906 236.824219 173.230469 235.328125 L 212.625 187.261719 L 211.6875 185.496094 C 204.597656 172.179688 195.996094 159.664062 186.125 148.289062 C 182.660156 144.300781 178.507812 139.921875 173.105469 138.453125 C 171.691406 138.066406 170.21875 137.875 168.609375 137.875 C 164.726562 137.875 160.773438 138.992188 156.375 140.339844 L 125.496094 149.832031 C 124.152344 150.25 122.617188 150.625 120.996094 151.019531 L 120.636719 151.109375 C 114.964844 152.472656 107.910156 154.167969 104.726562 158.449219 C 101.609375 162.660156 101.636719 169.855469 101.65625 175.640625 C 101.667969 177.511719 101.667969 179.324219 101.574219 180.917969 L 99.632812 213.671875 C 99.40625 217.511719 99.550781 221.347656 102.113281 223.375 C 103.285156 224.308594 104.871094 224.714844 106.300781 225.082031 L 160.5 239.023438 C 162.230469 239.46875 164.058594 239.898438 165.75 239.898438 Z M 165.75 239.898438 " style=" stroke:none;fill-rule:nonzero;fill:rgb(35.686275%,36.470588%,42.745098%);fill-opacity:1;" />
<path d="M 55.859375 283.082031 L 55.378906 281.296875 L 14.277344 272.722656 L 13.390625 321.636719 L 13.578125 322.152344 C 19.125 337.589844 27.089844 352.265625 37.25 365.78125 L 37.726562 366.414062 L 65.398438 378.449219 L 84.597656 358.625 L 83.65625 356.726562 C 72 333.234375 62.648438 308.457031 55.859375 283.082031 Z M 55.859375 283.082031 " style=" stroke:none;fill-rule:nonzero;fill:rgb(35.686275%,36.470588%,42.745098%);fill-opacity:1;" />
<path d="M 54.714844 165.550781 C 58.273438 160.472656 62.160156 154.546875 63.195312 148.484375 L 64.582031 140.386719 L 58.304688 145.683594 C 49.726562 152.925781 42.074219 161 35.558594 169.675781 C 27.363281 180.597656 20.589844 192.835938 15.433594 206.046875 L 14.15625 209.324219 L 22.722656 211.179688 Z M 54.714844 165.550781 " style=" stroke:none;fill-rule:nonzero;fill:rgb(35.686275%,36.470588%,42.745098%);fill-opacity:1;" />
<path d="M 255.46875 386.5 C 255.039062 387.082031 254.613281 387.609375 254.171875 388.113281 C 249.4375 393.472656 242.550781 396.414062 236.410156 399.039062 L 205.476562 412.246094 C 202.597656 413.46875 198.660156 415.148438 194.757812 415.148438 C 194.097656 415.148438 193.46875 415.101562 192.886719 415.011719 L 191.398438 414.816406 L 190.445312 415.726562 L 168.863281 432.308594 L 178.691406 431.683594 C 200.027344 430.316406 220.355469 424.957031 239.101562 415.75 C 252.324219 409.257812 264.644531 400.898438 275.71875 390.90625 L 281.308594 385.867188 L 256.398438 385.25 Z M 255.46875 386.5 " style=" stroke:none;fill-rule:nonzero;fill:rgb(94.117647%,94.901961%,98.039216%);fill-opacity:1;" />
<path d="M 196.917969 325.683594 L 197.3125 325.25 C 200.675781 321.535156 204.488281 317.328125 208.382812 314.777344 L 210.726562 313.242188 L 209.355469 310.800781 C 202.660156 298.847656 196.355469 286.757812 190.789062 276.089844 C 184.445312 263.941406 178.691406 252.972656 172.449219 241.792969 L 171.203125 239.5625 L 168.800781 240.4375 C 167.839844 240.789062 166.808594 240.964844 165.738281 240.964844 C 163.730469 240.964844 161.71875 240.4375 160.234375 240.050781 L 106.035156 226.121094 C 105.132812 225.890625 104.113281 225.625 103.164062 225.210938 L 101.722656 224.578125 L 100.792969 223.597656 C 98.144531 220.8125 98.421875 216.125 98.574219 213.601562 L 100.511719 180.839844 C 100.601562 179.261719 100.597656 177.398438 100.585938 175.632812 C 100.570312 171.792969 100.546875 167.015625 101.566406 162.992188 L 102.34375 159.925781 L 63.414062 152.238281 L 62.464844 154.488281 C 60.699219 158.660156 58 162.730469 55.589844 166.164062 L 23.394531 212.089844 C 23.394531 212.089844 23.355469 212.136719 23.226562 212.214844 L 21.902344 213.019531 L 21.796875 214.566406 C 21.144531 223.898438 18.855469 233.824219 16.835938 242.582031 C 14.882812 251.050781 12.867188 259.808594 12.011719 268.417969 L 11.746094 271.101562 L 56.234375 280.382812 L 56.28125 280.554688 C 56.304688 280.636719 56.332031 280.71875 56.363281 280.804688 C 63.367188 307.578125 73.242188 333.707031 85.714844 358.457031 C 85.75 358.523438 85.765625 358.597656 85.769531 358.675781 L 85.855469 360.734375 L 87.808594 361.394531 C 106.484375 367.710938 125.90625 371.660156 145.53125 373.136719 L 147.265625 373.292969 L 148.238281 371.832031 L 192.085938 330.726562 C 193.585938 329.332031 195.203125 327.558594 196.917969 325.683594 Z M 196.917969 325.683594 " style=" stroke:none;fill-rule:nonzero;fill:rgb(94.117647%,94.901961%,98.039216%);fill-opacity:1;" />
<path d="M 183.09375 408.660156 L 148.230469 372.625 L 147.425781 371.308594 L 145.890625 371.195312 C 126.101562 369.726562 106.554688 365.730469 87.796875 359.328125 L 85.996094 358.714844 L 65.558594 379.816406 L 71.886719 400.289062 L 72.683594 400.875 C 81.480469 407.335938 90.777344 412.839844 100.324219 417.230469 C 121.296875 426.890625 144.785156 432 168.257812 432 C 169.359375 432 170.464844 431.988281 171.570312 431.964844 L 172.554688 431.945312 L 193.355469 415.96875 L 189.238281 413.777344 C 186.75 412.457031 184.726562 410.355469 183.09375 408.660156 Z M 183.09375 408.660156 " style=" stroke:none;fill-rule:nonzero;fill:rgb(84.705882%,87.058824%,92.54902%);fill-opacity:1;" />
<path d="M 50.789062 373.257812 L 47.367188 378.019531 C 52.132812 383.285156 57.296875 388.308594 62.707031 392.945312 L 70.605469 399.714844 L 64.21875 379.105469 Z M 50.789062 373.257812 " style=" stroke:none;fill-rule:nonzero;fill:rgb(84.705882%,87.058824%,92.54902%);fill-opacity:1;" />
<path d="M 12.929688 212.871094 C 9.71875 222.320312 7.339844 232.195312 5.863281 242.234375 C 3.171875 260.613281 3.492188 279.070312 6.820312 297.09375 L 12.769531 296.601562 L 13.207031 272.09375 C 13.210938 271.992188 13.257812 271.867188 13.332031 271.75 L 13.757812 271.105469 L 13.820312 270.335938 C 14.535156 261.34375 16.675781 252.027344 18.742188 243.019531 C 20.746094 234.320312 23.015625 224.460938 23.730469 215.148438 L 23.929688 212.542969 L 13.789062 210.335938 Z M 12.929688 212.871094 " style=" stroke:none;fill-rule:nonzero;fill:rgb(84.705882%,87.058824%,92.54902%);fill-opacity:1;" />
<path d="M 501.828125 118.140625 L 500.410156 113.121094 L 496.78125 116.871094 C 476.78125 137.570312 452.851562 154.152344 425.660156 166.164062 L 425.339844 166.304688 L 425.265625 165.921875 C 424.472656 161.765625 423.648438 157.941406 422.746094 154.238281 L 422.257812 152.238281 L 424.039062 151.027344 C 431.492188 145.957031 437.8125 140.027344 442.820312 133.410156 C 451.519531 121.941406 456.050781 108.441406 455.585938 95.398438 C 455.355469 89.027344 453.917969 82.582031 452.648438 76.898438 L 452.566406 76.519531 C 451.882812 73.433594 451.171875 70.246094 450.648438 67.101562 C 449.011719 57.285156 449.660156 49.140625 452.578125 42.894531 L 453.546875 40.816406 L 451.796875 39.335938 C 449.855469 37.691406 447.808594 36.066406 445.714844 34.503906 L 443.46875 32.824219 L 441.644531 34.949219 C 437.429688 39.855469 435.34375 47.148438 435.773438 55.492188 C 436.019531 60.203125 436.953125 64.96875 437.773438 69.160156 L 437.855469 69.582031 C 438.429688 72.582031 439.023438 75.683594 439.394531 78.738281 C 441.5625 96.609375 436.375 114.941406 425.15625 129.035156 C 422.953125 131.796875 420.460938 134.4375 417.753906 136.894531 L 417.574219 136.347656 C 417.316406 135.558594 417.054688 134.769531 416.785156 134 C 397.34375 77.9375 355.746094 32.929688 305.507812 13.605469 L 304.460938 13.203125 L 303.402344 13.585938 C 299.175781 15.125 294.949219 16.871094 290.832031 18.769531 L 283.5 22.15625 L 291.265625 24.378906 C 318.863281 32.273438 345.011719 50.742188 364.890625 76.382812 C 379.613281 95.375 391.582031 119.023438 400.464844 146.671875 L 400.933594 148.125 L 399.652344 148.691406 C 393.082031 151.609375 386.242188 153.457031 379.308594 154.179688 C 377.199219 154.410156 375.125 154.523438 373.140625 154.523438 C 366.570312 154.523438 360.710938 153.296875 355.730469 150.875 C 344.363281 145.363281 337.570312 133.894531 330.984375 122.777344 C 328.882812 119.21875 326.5 115.183594 324.035156 111.550781 C 306.183594 85.234375 274.824219 68.886719 242.199219 68.886719 C 237.539062 68.886719 232.882812 69.230469 228.351562 69.917969 L 227.128906 70.101562 L 226.390625 71.097656 C 223.871094 74.5 221.429688 78.082031 219.136719 81.753906 L 214.347656 89.425781 L 222.773438 86.136719 C 230.710938 83.042969 239.464844 81.40625 248.09375 81.40625 C 253.40625 81.40625 258.644531 82.011719 263.664062 83.210938 C 279.113281 86.898438 293.371094 96.347656 302.789062 109.132812 C 306.78125 114.554688 310.039062 120.679688 313.1875 126.605469 L 313.242188 126.707031 C 317.773438 135.265625 322.054688 143.34375 328.605469 150.207031 C 338.375 160.410156 352.882812 166.804688 368.40625 167.746094 C 369.828125 167.835938 371.28125 167.878906 372.726562 167.878906 C 382.933594 167.878906 393.492188 165.746094 404.109375 161.542969 L 404.761719 161.285156 L 405.199219 162.917969 C 405.347656 163.457031 405.496094 164 405.636719 164.550781 C 406.246094 166.914062 406.832031 169.308594 407.433594 171.875 L 407.746094 173.222656 L 406.457031 173.664062 C 382.292969 181.898438 357.34375 186.074219 332.304688 186.074219 C 324.8125 186.074219 317.195312 185.679688 309.671875 184.898438 L 303.828125 184.292969 L 306.765625 189.382812 C 308.109375 191.714844 309.453125 194.1875 310.75 196.734375 L 311.476562 198.160156 L 313.0625 198.351562 C 321.527344 199.378906 330.183594 199.898438 338.796875 199.898438 C 362.90625 199.898438 386.921875 195.9375 410.179688 188.125 L 410.769531 187.929688 L 410.871094 188.496094 C 411.1875 190.285156 411.484375 192.054688 411.761719 193.828125 L 412.023438 195.507812 L 412.019531 195.507812 L 412.019531 195.515625 L 410.074219 196.554688 C 406.183594 198.628906 402.769531 201.234375 399.921875 204.304688 C 393.632812 211.09375 390.222656 219.363281 386.59375 228.160156 C 384.339844 233.617188 382.011719 239.257812 378.949219 244.308594 C 369.109375 260.558594 351.125 271.082031 332.015625 271.773438 L 329.152344 271.875 L 329.125 274.742188 C 329.105469 276.703125 329.050781 278.785156 328.957031 280.933594 L 328.824219 284.066406 L 331.957031 284.0625 C 355.753906 284.027344 378.726562 270.734375 390.476562 250.191406 C 392.820312 246.109375 394.738281 241.738281 396.613281 237.46875 C 398.855469 232.367188 401.171875 227.089844 404.21875 222.355469 C 406.828125 218.300781 410.25 214.675781 413.886719 212.078125 C 414.574219 221.125 414.679688 229.949219 414.191406 238.320312 C 412.808594 262.527344 406.3125 285.136719 395.410156 303.703125 L 391.375 310.574219 L 398.941406 308.070312 C 403.363281 306.605469 407.84375 304.894531 412.257812 302.984375 L 413.503906 302.445312 L 413.921875 301.15625 C 424.273438 269.25 429.449219 238.09375 429.308594 208.554688 L 429.300781 207.671875 L 429.828125 207.753906 C 438.09375 209.058594 445.535156 215.847656 451.953125 227.933594 C 452.785156 229.488281 453.582031 231.058594 454.414062 232.691406 C 458.6875 241.066406 463.101562 249.722656 470.917969 255.050781 L 473.175781 257.335938 L 475.277344 254.683594 C 477.695312 251.636719 479.984375 248.539062 482.082031 245.476562 L 484.523438 241.914062 L 480.335938 240.871094 C 476.691406 239.957031 473.058594 236.832031 470.851562 232.710938 C 469.238281 229.707031 468.214844 226.347656 467.210938 223.050781 C 466.40625 220.398438 465.71875 218.191406 464.800781 215.957031 C 459.84375 203.9375 448.367188 194.683594 435.546875 192.375 C 433.777344 192.0625 431.90625 191.875 429.984375 191.820312 L 428.675781 191.78125 L 428.667969 191.6875 L 428.636719 191.6875 L 428.558594 190.671875 C 428.335938 187.851562 428.121094 185.542969 427.890625 183.402344 L 427.675781 181.445312 L 429.476562 180.65625 C 457.484375 168.339844 482.898438 150.324219 502.976562 128.554688 L 504.167969 127.421875 L 503.78125 125.75 C 503.136719 123.015625 502.5 120.523438 501.828125 118.140625 Z M 501.828125 118.140625 " style=" stroke:none;fill-rule:nonzero;fill:rgb(100%,100%,100%);fill-opacity:1;" />
<path d="M 370.308594 431.0625 C 371.757812 432.191406 373.210938 433.21875 374.625 434.109375 C 374.785156 434.214844 374.953125 434.3125 375.121094 434.414062 L 375.945312 434.910156 L 376.535156 434.964844 C 378.539062 435.566406 380.648438 435.875 382.808594 435.875 C 390.746094 435.875 398.265625 431.886719 402.421875 425.480469 C 403.863281 423.277344 404.847656 420.960938 405.890625 418.511719 L 405.949219 418.375 C 406.785156 416.410156 407.648438 414.378906 408.726562 412.550781 C 410.648438 409.285156 414.160156 405.792969 418.25 405.792969 C 418.578125 405.792969 418.914062 405.816406 419.246094 405.859375 C 424.855469 406.605469 427.882812 413.738281 429.507812 417.570312 C 432.832031 425.386719 437.011719 429.382812 441.988281 429.457031 L 442.097656 429.46875 L 443.386719 429.46875 L 444.234375 428.726562 C 446.070312 427.125 447.808594 425.386719 449.402344 423.558594 L 452.046875 420.527344 L 448.386719 418.859375 C 443.324219 416.546875 439.523438 411.007812 436.78125 406.4375 C 432.488281 399.3125 427.65625 392.257812 419.960938 391.136719 C 419.308594 391.042969 418.644531 390.996094 417.984375 390.996094 C 408.945312 390.996094 402.382812 399.664062 399.976562 403.394531 C 398.917969 405.042969 397.921875 406.75 396.8125 408.664062 C 393.921875 413.636719 390.9375 418.777344 386.355469 422.113281 C 383.078125 424.5 378.863281 425.816406 374.492188 425.816406 C 373.898438 425.816406 373.238281 425.78125 372.421875 425.707031 L 362.253906 424.792969 Z M 370.308594 431.0625 " style=" stroke:none;fill-rule:nonzero;fill:rgb(100%,100%,100%);fill-opacity:1;" />
<path d="M 385.664062 355.511719 C 386.855469 357.824219 387.550781 360.378906 388.246094 362.917969 C 388.9375 365.40625 389.585938 367.757812 390.6875 370.066406 C 394.359375 377.703125 402.949219 382.835938 412.0625 382.835938 C 413.824219 382.835938 415.574219 382.636719 417.253906 382.25 C 427.210938 379.957031 435.449219 371.3125 437.75 360.746094 C 438.398438 357.761719 438.597656 354.824219 438.804688 351.714844 C 439.046875 348.039062 439.300781 344.230469 440.453125 340.71875 L 441.144531 338.605469 L 439.320312 337.328125 C 437.453125 336.023438 435.449219 334.792969 433.359375 333.671875 L 429.96875 331.859375 L 429.03125 335.585938 C 428.136719 339.132812 427.773438 342.644531 427.394531 346.84375 L 427.078125 350.140625 C 426.519531 355.390625 425.5 361.390625 422.199219 366.054688 C 419.476562 369.914062 415.226562 372.308594 411.109375 372.308594 C 410.132812 372.308594 409.191406 372.171875 408.3125 371.90625 C 403.132812 370.339844 400.203125 364.839844 398.65625 360.5 C 398.183594 359.164062 397.753906 357.761719 397.339844 356.410156 L 397.261719 356.15625 C 396.109375 352.359375 394.914062 348.433594 392.566406 345.039062 C 388.925781 339.792969 382.484375 336.53125 375.753906 336.53125 C 375.207031 336.53125 374.65625 336.554688 374.117188 336.597656 L 373.339844 336.660156 L 372.695312 337.09375 C 371.21875 338.082031 369.75 339.179688 368.207031 340.453125 L 362.253906 345.351562 L 369.953125 345.761719 C 376.625 346.121094 382.792969 349.949219 385.664062 355.511719 Z M 385.664062 355.511719 " style=" stroke:none;fill-rule:nonzero;fill:rgb(100%,100%,100%);fill-opacity:1;" />
<path d="M 168.601562 136.8125 C 169.15625 136.8125 169.710938 136.835938 170.246094 136.878906 L 172.019531 137.023438 L 172.035156 137 L 173.894531 137.574219 C 179.351562 139.257812 183.480469 143.625 186.925781 147.585938 C 197.167969 159.382812 206.046875 172.410156 213.3125 186.308594 L 213.847656 187.335938 L 213.667969 187.675781 L 173.984375 236.097656 C 173.1875 237.0625 172.359375 238.0625 171.359375 238.90625 L 169.472656 240.503906 L 170.679688 242.660156 C 177.375 254.621094 183.578125 266.507812 189.046875 276.992188 C 195.457031 289.289062 201.285156 300.402344 207.710938 311.882812 L 208.949219 314.09375 L 211.339844 313.242188 C 212.355469 312.878906 213.574219 312.695312 214.960938 312.695312 C 219.296875 312.695312 224.648438 314.484375 228.945312 315.921875 C 231.078125 316.636719 232.824219 317.210938 234.265625 317.570312 L 261.339844 324.289062 C 263.632812 324.855469 267.902344 325.914062 270.628906 328.488281 L 271.8125 329.609375 L 271.8125 329.613281 C 271.8125 329.613281 272.703125 331.484375 272.726562 331.539062 C 273.96875 334.792969 272.804688 338.46875 271.949219 341.160156 L 262.636719 370.464844 C 261.3125 374.621094 259.945312 378.917969 257.785156 382.871094 L 255.429688 387.1875 L 279.113281 387.765625 L 280.019531 386.890625 C 297.804688 369.648438 311.433594 348.4375 319.433594 325.546875 C 324.558594 310.886719 327.429688 295.285156 327.96875 279.175781 L 328.042969 276.960938 L 325.949219 276.242188 C 325.882812 276.21875 325.855469 276.199219 325.832031 276.179688 C 322.828125 273.941406 318.964844 273.132812 315.160156 272.335938 C 311.964844 271.65625 308.941406 271.015625 306.246094 269.585938 L 304.660156 268.746094 L 303.414062 267.644531 C 299.332031 264.042969 297.78125 258.402344 296.535156 253.875 L 284.253906 209.054688 C 283.292969 205.546875 282.203125 201.574219 282.128906 197.503906 L 282.101562 195.890625 L 282.371094 193.925781 C 282.402344 193.703125 282.441406 193.476562 282.492188 193.234375 C 283.328125 189.070312 285.640625 186.046875 287.882812 183.121094 L 287.9375 183.050781 C 290.339844 179.933594 292.824219 176.714844 293.113281 172.199219 L 293.1875 171.054688 L 292.484375 170.15625 C 269.648438 141.019531 237.980469 120.238281 203.300781 111.632812 C 199.15625 110.613281 194.816406 109.742188 190.398438 109.039062 L 190.445312 108.96875 L 185.683594 108.359375 C 178.859375 107.488281 171.996094 107.046875 165.28125 107.046875 C 129.355469 107.046875 93.929688 118.730469 65.535156 139.945312 L 64.101562 141.015625 L 64.363281 142.789062 C 64.75 145.40625 64.539062 148.089844 63.714844 150.988281 L 62.824219 154.121094 L 101.726562 161.808594 L 102.734375 159.722656 C 103.082031 159 103.453125 158.375 103.878906 157.804688 C 107.265625 153.246094 114.527344 151.484375 120.386719 150.0625 L 120.890625 149.941406 C 122.441406 149.566406 123.910156 149.210938 125.195312 148.8125 L 156.070312 139.3125 C 159.890625 138.140625 164.222656 136.8125 168.601562 136.8125 Z M 168.601562 136.8125 " style=" stroke:none;fill-rule:nonzero;fill:rgb(100%,100%,100%);fill-opacity:1;" />
<path d="M 503.691406 124.949219 L 499.699219 129.164062 C 479.808594 150.179688 454.867188 167.539062 427.578125 179.367188 L 425.527344 180.253906 L 425.789062 182.46875 C 426.109375 185.179688 426.378906 187.976562 426.609375 191.023438 L 426.816406 193.757812 L 429.554688 193.796875 C 431.59375 193.828125 433.4375 194 435.199219 194.320312 C 447.363281 196.503906 458.269531 205.292969 462.976562 216.714844 C 463.921875 219 464.667969 221.460938 465.328125 223.628906 C 466.339844 226.972656 467.386719 230.429688 469.109375 233.648438 C 471.308594 237.738281 475.957031 242.667969 481.808594 243.101562 L 483.589844 243.230469 L 484.554688 241.730469 C 492.0625 230.050781 497.820312 217.703125 501.671875 205.035156 C 508.765625 181.730469 509.855469 156.007812 504.824219 130.644531 Z M 503.691406 124.949219 " style=" stroke:none;fill-rule:nonzero;fill:rgb(96.862745%,70.196078%,43.529412%);fill-opacity:1;" />
<path d="M 423.164062 165.398438 L 423.875 169.121094 L 427.332031 167.578125 C 454.910156 155.253906 479.097656 138.300781 499.238281 117.167969 L 501.238281 116.039062 L 500.511719 113.71875 C 500.011719 112.136719 499.507812 110.550781 498.964844 108.96875 C 489.957031 82.898438 474.769531 59.796875 455.039062 42.164062 L 451.871094 39.332031 L 450.261719 43.261719 C 447.628906 49.695312 447.109375 57.824219 448.71875 67.421875 C 449.285156 70.832031 450.054688 74.277344 450.730469 77.324219 C 452.046875 83.222656 453.410156 89.328125 453.632812 95.476562 C 454.078125 108.066406 449.683594 121.117188 441.257812 132.226562 C 436.117188 139.019531 429.566406 145.0625 421.789062 150.195312 L 420.015625 151.363281 L 420.527344 153.425781 C 421.507812 157.351562 422.394531 161.382812 423.164062 165.398438 Z M 423.164062 165.398438 " style=" stroke:none;fill-rule:nonzero;fill:rgb(96.862745%,70.196078%,43.529412%);fill-opacity:1;" />
<path d="M 456.136719 231.773438 C 455.328125 230.175781 454.511719 228.582031 453.675781 227.007812 C 447.152344 214.75 439.5 207.667969 430.9375 205.964844 L 427.339844 205.25 L 427.351562 208.917969 C 427.441406 237.070312 422.660156 266.738281 413.148438 297.089844 L 411.089844 303.652344 L 417.300781 300.695312 C 427.382812 295.894531 437.007812 290.046875 445.910156 283.308594 C 455.78125 275.835938 464.785156 267.277344 472.667969 257.875 L 474.800781 255.332031 L 472.058594 253.464844 C 464.621094 248.40625 460.304688 239.945312 456.136719 231.773438 Z M 456.136719 231.773438 " style=" stroke:none;fill-rule:nonzero;fill:rgb(96.862745%,70.196078%,43.529412%);fill-opacity:1;" />
<path d="M 415.160156 135.320312 C 415.238281 135.558594 415.3125 135.796875 415.398438 136.035156 L 416.929688 140.433594 L 420.300781 137.21875 C 422.644531 134.980469 424.792969 132.640625 426.6875 130.265625 C 438.234375 115.757812 443.574219 96.894531 441.335938 78.507812 C 440.960938 75.375 440.355469 72.230469 439.769531 69.191406 L 439.695312 68.796875 C 438.84375 64.417969 437.964844 59.890625 437.734375 55.390625 C 437.5 50.898438 437.867188 42.464844 442.953125 36.441406 L 445.121094 33.871094 L 442.316406 32.007812 C 442.199219 31.925781 442.085938 31.839844 441.960938 31.742188 L 441.859375 31.667969 C 416.078125 13.621094 386.441406 4.082031 356.15625 4.082031 C 341.167969 4.082031 326.042969 6.390625 311.183594 10.957031 C 310.722656 11.101562 310.261719 11.253906 309.796875 11.40625 L 301.691406 14.066406 L 309.121094 17.175781 C 332.601562 26.996094 354.648438 42.863281 372.878906 63.0625 C 391.183594 83.347656 405.726562 108.101562 414.941406 134.671875 C 415.019531 134.886719 415.089844 135.101562 415.160156 135.320312 Z M 415.160156 135.320312 " style=" stroke:none;fill-rule:nonzero;fill:rgb(96.862745%,70.196078%,43.529412%);fill-opacity:1;" />
<path d="M 415.972656 213.855469 L 415.585938 208.097656 L 411.09375 211.722656 C 407.875 214.324219 404.925781 217.636719 402.566406 221.304688 C 399.453125 226.136719 397.113281 231.460938 394.8125 236.691406 C 392.980469 240.867188 391.085938 245.183594 388.777344 249.226562 C 377.523438 268.898438 354.636719 282.117188 331.828125 282.117188 L 328.929688 282.117188 L 328.738281 284.910156 C 328.15625 293.359375 326.914062 301.761719 325.046875 309.875 L 324.335938 312.957031 L 327.453125 313.5 C 335.875 314.976562 344.324219 315.726562 352.574219 315.726562 C 353.527344 315.726562 354.480469 315.714844 355.429688 315.695312 C 367.894531 315.441406 380.523438 313.5 392.96875 309.917969 L 394.054688 309.605469 L 394.664062 308.652344 C 407.199219 289.089844 414.628906 264.808594 416.144531 238.4375 C 416.597656 230.558594 416.539062 222.289062 415.972656 213.855469 Z M 415.972656 213.855469 " style=" stroke:none;fill-rule:nonzero;fill:rgb(96.862745%,70.196078%,43.529412%);fill-opacity:1;" />
<path d="M 329.089844 270.777344 L 329.144531 273.839844 L 332.203125 273.726562 C 351.914062 272.980469 370.46875 262.101562 380.628906 245.328125 C 383.75 240.15625 386.109375 234.453125 388.421875 228.859375 C 391.808594 220.652344 395.308594 212.167969 401.359375 205.636719 C 404.351562 202.410156 407.996094 199.738281 412.183594 197.695312 L 414.160156 196.730469 L 413.835938 194.558594 C 413.511719 192.359375 413.214844 190.519531 412.902344 188.769531 L 412.296875 185.351562 L 409 186.449219 C 386.078125 194.085938 362.441406 197.957031 338.75 197.957031 C 331.167969 197.957031 323.46875 197.542969 315.859375 196.722656 L 310.539062 196.152344 L 312.828125 200.992188 C 323.050781 222.585938 328.675781 246.71875 329.089844 270.777344 Z M 329.089844 270.777344 " style=" stroke:none;fill-rule:nonzero;fill:rgb(96.862745%,70.196078%,43.529412%);fill-opacity:1;" />
<path d="M 300.441406 179.25 C 301.5625 180.894531 302.722656 182.691406 304.195312 185.082031 L 304.957031 186.316406 L 306.394531 186.484375 C 314.921875 187.5 323.65625 188.015625 332.34375 188.015625 C 357.722656 188.015625 383.003906 183.761719 407.492188 175.375 L 410.0625 174.496094 L 409.441406 171.847656 C 408.75 168.914062 408.144531 166.441406 407.527344 164.039062 L 407.332031 163.316406 C 407.207031 162.859375 407.082031 162.402344 406.96875 161.949219 L 406.132812 158.65625 L 402.96875 159.890625 C 392.699219 163.894531 382.515625 165.925781 372.699219 165.925781 C 371.410156 165.925781 370.039062 165.882812 368.523438 165.800781 C 353.472656 164.878906 339.4375 158.699219 330.019531 148.851562 C 323.660156 142.199219 319.242188 133.855469 314.96875 125.789062 L 314.875 125.609375 C 311.710938 119.648438 308.4375 113.488281 304.367188 107.964844 C 294.683594 94.816406 280.011719 85.101562 264.113281 81.304688 C 258.929688 80.074219 253.53125 79.449219 248.066406 79.449219 C 237.15625 79.449219 226.339844 81.933594 216.785156 86.632812 L 215.949219 87.042969 L 215.496094 87.851562 C 211.867188 94.296875 208.691406 101.015625 206.0625 107.824219 L 204.871094 110.90625 L 208.050781 111.792969 C 245.148438 122.164062 277.960938 146.117188 300.441406 179.25 Z M 300.441406 179.25 " style=" stroke:none;fill-rule:nonzero;fill:rgb(96.862745%,70.196078%,43.529412%);fill-opacity:1;" />
<path d="M 247.367188 47.757812 C 241.167969 53.460938 235.296875 59.769531 229.925781 66.507812 L 225.453125 72.113281 L 232.585938 71.359375 C 235.730469 71.027344 238.949219 70.859375 242.15625 70.859375 C 274.167969 70.859375 304.917969 86.878906 322.40625 112.664062 C 324.761719 116.128906 326.996094 119.898438 329.15625 123.539062 L 329.296875 123.773438 C 336.324219 135.644531 342.964844 146.859375 354.871094 152.648438 C 360.132812 155.195312 366.28125 156.484375 373.15625 156.484375 C 375.203125 156.484375 377.347656 156.371094 379.523438 156.140625 C 386.84375 155.367188 394.03125 153.398438 400.886719 150.289062 L 403.320312 149.1875 L 402.507812 146.644531 C 393.546875 118.546875 381.410156 94.503906 366.433594 75.1875 C 345.109375 47.671875 316.972656 28.527344 287.210938 21.28125 L 286.128906 21.019531 L 285.140625 21.523438 C 271.425781 28.496094 258.71875 37.324219 247.367188 47.757812 Z M 247.367188 47.757812 " style=" stroke:none;fill-rule:nonzero;fill:rgb(96.862745%,70.196078%,43.529412%);fill-opacity:1;" />
<path d="M 442.941406 340.078125 L 439.3125 337.097656 L 438.136719 341.644531 C 437.292969 344.898438 437.066406 348.300781 436.847656 351.589844 C 436.65625 354.484375 436.457031 357.476562 435.839844 360.320312 C 433.699219 370.171875 426.054688 378.21875 416.824219 380.339844 C 415.289062 380.691406 413.714844 380.867188 412.140625 380.867188 C 403.851562 380.867188 395.753906 376.070312 392.453125 369.210938 C 391.402344 367.011719 390.75 364.632812 390.121094 362.332031 C 389.414062 359.761719 388.6875 357.105469 387.40625 354.613281 C 384.070312 348.132812 376.617188 343.777344 368.863281 343.777344 C 367.453125 343.777344 366.0625 343.925781 364.726562 344.214844 L 363.828125 344.40625 L 363.195312 345.066406 C 356.40625 352.144531 351.546875 360.976562 349.148438 370.609375 C 344.480469 389.335938 349.960938 410.078125 363.453125 424.738281 L 363.8125 425.132812 L 364.289062 425.375 C 367.371094 426.957031 370.910156 427.796875 374.519531 427.796875 C 379.265625 427.796875 383.875 426.339844 387.503906 423.703125 C 392.441406 420.105469 395.390625 415.011719 398.511719 409.628906 L 398.628906 409.421875 C 399.59375 407.769531 400.589844 406.058594 401.632812 404.449219 C 403.855469 400.992188 409.890625 392.949219 417.925781 392.949219 C 418.507812 392.949219 419.097656 392.992188 419.675781 393.074219 C 426.527344 394.066406 431.050781 400.722656 435.097656 407.453125 C 438.460938 413.046875 442.722656 419.046875 448.800781 421.140625 L 450.878906 421.855469 L 452.1875 420.09375 C 464.144531 403.996094 467.335938 381.847656 460.316406 363.671875 C 456.847656 354.71875 450.839844 346.558594 442.941406 340.078125 Z M 442.941406 340.078125 " style=" stroke:none;fill-rule:nonzero;fill:rgb(97.647059%,84.705882%,53.72549%);fill-opacity:1;" />
<path d="M 431.3125 416.804688 C 428.847656 411.003906 425.699219 404.742188 419.503906 403.914062 C 419.105469 403.859375 418.699219 403.835938 418.300781 403.835938 C 413.355469 403.835938 409.238281 407.816406 407.035156 411.546875 C 405.835938 413.578125 404.921875 415.761719 404.121094 417.667969 L 404.042969 417.855469 C 403.089844 420.082031 402.105469 422.386719 400.78125 424.414062 C 397.667969 429.214844 392.175781 432.652344 386.089844 433.617188 L 385.550781 439.402344 C 391.921875 441.679688 398.671875 442.835938 405.617188 442.835938 C 418.019531 442.835938 430.191406 439.046875 439.886719 432.164062 L 444.277344 429.050781 L 439.316406 426.957031 C 436.371094 425.710938 433.601562 422.203125 431.3125 416.804688 Z M 431.3125 416.804688 " style=" stroke:none;fill-rule:nonzero;fill:rgb(97.647059%,84.705882%,53.72549%);fill-opacity:1;" />
<path d="M 371.675781 337.078125 L 379.9375 338.925781 C 384.453125 339.933594 388.46875 342.570312 390.953125 346.152344 C 393.128906 349.300781 394.273438 353.074219 395.382812 356.730469 L 395.421875 356.859375 C 395.859375 358.273438 396.308594 359.734375 396.8125 361.148438 C 399.234375 367.980469 403.011719 372.347656 407.738281 373.777344 C 408.824219 374.109375 409.960938 374.273438 411.121094 374.273438 C 415.78125 374.273438 420.757812 371.496094 423.8125 367.1875 C 427.371094 362.15625 428.441406 355.851562 429.027344 350.339844 C 429.136719 349.242188 429.238281 348.144531 429.339844 347.015625 C 429.707031 343.121094 430.085938 339.089844 431.121094 335.324219 L 431.8125 332.820312 L 429.433594 331.777344 C 422.074219 328.558594 414.242188 326.929688 406.152344 326.929688 C 399.152344 326.929688 392.226562 328.160156 385.558594 330.59375 C 383.445312 331.367188 381.324219 332.28125 379.253906 333.3125 Z M 371.675781 337.078125 " style=" stroke:none;fill-rule:nonzero;fill:rgb(97.647059%,84.705882%,53.72549%);fill-opacity:1;" />
<path d="M 502.808594 107.640625 C 491.585938 75.117188 470.769531 46.953125 444.191406 28.339844 C 404.191406 0.324219 356.539062 -7.230469 310.011719 7.0625 C 286.035156 14.429688 263.421875 27.464844 244.617188 44.761719 C 225.574219 62.285156 210.820312 83.851562 201.957031 107.136719 C 139.375 92.632812 69.917969 117.128906 32.308594 167.234375 C 16.40625 188.414062 5.871094 214.144531 1.839844 241.640625 C -2.152344 268.859375 0.378906 296.613281 9.164062 321.90625 C 14.984375 338.671875 23.613281 354.507812 34.386719 368.722656 C 34.453125 368.824219 34.53125 368.914062 34.605469 369.007812 C 51.496094 391.207031 73.644531 409.421875 98.617188 420.925781 C 120.546875 431.03125 144.425781 436.074219 168.261719 436.074219 C 193.300781 436.070312 218.292969 430.503906 240.898438 419.398438 C 279.304688 400.527344 309.328125 366.8125 323.273438 326.890625 C 324.363281 323.769531 325.351562 320.609375 326.238281 317.421875 C 335.019531 318.992188 343.867188 319.796875 352.609375 319.796875 C 353.578125 319.796875 354.546875 319.785156 355.511719 319.765625 C 387.953125 319.113281 420.929688 307.316406 448.367188 286.554688 C 475.804688 265.792969 496.117188 237.261719 505.566406 206.21875 C 515.007812 175.175781 514.03125 140.167969 502.808594 107.640625 Z M 472.917969 252.824219 C 472.867188 252.78125 472.824219 252.734375 472.769531 252.699219 C 465.472656 247.804688 461.195312 239.414062 457.0625 231.296875 C 456.242188 229.691406 455.429688 228.09375 454.59375 226.523438 C 447.695312 213.554688 439.523438 206.261719 430.292969 204.796875 C 430.226562 201.457031 430.089844 198.136719 429.886719 194.832031 C 431.609375 194.878906 433.324219 195.035156 435.015625 195.339844 C 446.835938 197.464844 457.4375 206.011719 462.019531 217.109375 C 462.921875 219.296875 463.609375 221.550781 464.332031 223.933594 C 465.367188 227.339844 466.441406 230.859375 468.195312 234.132812 C 470.53125 238.484375 474.675781 242.558594 479.597656 243.792969 C 477.492188 246.871094 475.257812 249.882812 472.917969 252.824219 Z M 411.058594 300.234375 C 406.757812 302.101562 402.394531 303.769531 397.984375 305.230469 C 409.132812 286.253906 415.757812 263.324219 417.183594 238.496094 C 417.6875 229.753906 417.570312 220.746094 416.835938 211.410156 C 419.75 209.753906 422.9375 208.6875 426.296875 208.578125 C 426.441406 237.863281 421.359375 268.492188 411.058594 300.234375 Z M 272.691406 326.304688 C 269.410156 323.207031 264.695312 322.027344 262.0625 321.375 L 234.992188 314.660156 C 233.613281 314.316406 231.808594 313.714844 229.898438 313.074219 C 223.644531 310.984375 215.929688 308.414062 210.332031 310.414062 C 203.726562 298.625 197.613281 286.929688 191.707031 275.605469 C 185.871094 264.417969 179.828125 252.867188 173.300781 241.195312 C 174.535156 240.144531 175.523438 238.953125 176.378906 237.90625 L 215.984375 189.578125 C 216.121094 189.414062 216.234375 189.230469 216.339844 189.046875 L 279.128906 197.558594 C 279.203125 201.972656 280.367188 206.234375 281.359375 209.851562 L 293.640625 254.664062 C 294.925781 259.351562 296.675781 265.703125 301.425781 269.894531 C 293.742188 289.5625 284.085938 308.519531 272.691406 326.304688 Z M 251.125 385.410156 C 246.972656 390.109375 240.515625 392.863281 234.820312 395.296875 L 203.890625 408.5 C 199.691406 410.292969 195.644531 411.808594 192.328125 410.714844 C 189.996094 409.945312 187.882812 407.761719 186.019531 405.835938 L 153.636719 372.355469 L 194.878906 333.699219 C 196.605469 332.078125 198.410156 330.09375 200.320312 327.988281 C 204.203125 323.710938 208.609375 318.859375 212.492188 317.144531 C 215.628906 315.757812 222.867188 318.179688 227.65625 319.78125 C 229.703125 320.464844 231.636719 321.113281 233.289062 321.523438 L 260.359375 328.238281 C 264.042969 329.152344 267.941406 330.429688 268.921875 332.992188 C 269.605469 334.78125 268.941406 337.1875 268.070312 339.921875 L 258.757812 369.21875 C 256.914062 375.019531 255.007812 381.015625 251.125 385.410156 Z M 146.183594 369.652344 C 146.023438 369.800781 145.882812 369.96875 145.753906 370.140625 C 126.351562 368.683594 107.203125 364.789062 88.769531 358.558594 C 88.75 358.066406 88.632812 357.578125 88.402344 357.121094 C 76.015625 332.542969 66.203125 306.578125 59.242188 279.949219 C 59.222656 279.875 59.195312 279.808594 59.171875 279.738281 L 101.957031 227.960938 C 103.117188 228.464844 104.273438 228.765625 105.285156 229.027344 L 159.488281 242.960938 C 161.171875 243.394531 163.382812 243.964844 165.734375 243.964844 C 167.078125 243.964844 168.464844 243.761719 169.828125 243.257812 C 176.304688 254.847656 182.316406 266.34375 188.125 277.476562 C 194.027344 288.785156 200.132812 300.46875 206.742188 312.269531 C 202.566406 314.996094 198.632812 319.328125 195.085938 323.238281 C 193.273438 325.230469 191.5625 327.117188 190.042969 328.539062 Z M 64.6875 374.871094 L 39.648438 363.976562 C 29.828125 350.917969 21.902344 336.441406 16.40625 321.140625 L 17.207031 276.398438 L 52.964844 283.855469 C 59.796875 309.417969 69.207031 334.351562 80.964844 358.054688 Z M 24.792969 214.777344 C 25.199219 214.527344 25.566406 214.21875 25.851562 213.8125 L 58.050781 167.886719 C 60.710938 164.09375 63.398438 159.992188 65.234375 155.65625 L 98.660156 162.261719 C 97.566406 166.601562 97.574219 171.460938 97.589844 175.648438 C 97.59375 177.484375 97.601562 179.21875 97.515625 180.675781 L 95.574219 213.425781 C 95.40625 216.273438 95.078125 221.949219 98.617188 225.660156 L 55.976562 277.261719 L 15.003906 268.714844 C 15.832031 260.332031 17.816406 251.671875 19.757812 243.253906 C 21.917969 233.882812 24.125 224.210938 24.792969 214.777344 Z M 104.660156 175.625 C 104.640625 170.285156 104.617188 163.632812 107.140625 160.238281 C 109.660156 156.84375 116.136719 155.28125 121.335938 154.023438 C 123.144531 153.585938 124.851562 153.175781 126.386719 152.703125 L 157.265625 143.207031 C 161.503906 141.902344 165.203125 140.875 168.609375 140.875 C 169.878906 140.875 171.109375 141.019531 172.308594 141.34375 C 176.90625 142.59375 180.679688 146.597656 183.855469 150.257812 C 193.59375 161.472656 202.058594 173.792969 209.035156 186.910156 L 170.910156 233.425781 C 169.898438 234.660156 168.753906 236.058594 167.566406 236.574219 C 166 237.25 163.78125 236.765625 161.246094 236.113281 L 107.046875 222.179688 C 105.875 221.878906 104.664062 221.566406 103.984375 221.027344 C 102.488281 219.84375 102.460938 216.730469 102.632812 213.84375 L 104.574219 181.09375 C 104.671875 179.414062 104.664062 177.574219 104.660156 175.625 Z M 202.578125 114.550781 C 236.921875 123.066406 267.621094 143.296875 290.125 172.011719 C 289.894531 175.578125 287.886719 178.191406 285.5625 181.214844 C 283.203125 184.285156 280.53125 187.761719 279.546875 192.644531 C 279.488281 192.9375 279.441406 193.230469 279.394531 193.519531 L 215.964844 184.921875 C 208.605469 170.839844 199.609375 157.621094 189.191406 145.621094 C 185.457031 141.324219 180.96875 136.617188 174.78125 134.714844 L 189.710938 111.964844 C 194.027344 112.640625 198.324219 113.496094 202.578125 114.550781 Z M 228.800781 72.886719 C 263.914062 67.582031 301.578125 83.800781 321.546875 113.242188 C 323.9375 116.761719 326.207031 120.59375 328.402344 124.300781 C 335.203125 135.789062 342.234375 147.667969 354.417969 153.578125 C 359.832031 156.203125 366.109375 157.523438 373.140625 157.523438 C 375.238281 157.523438 377.402344 157.40625 379.628906 157.171875 C 386.996094 156.394531 394.160156 154.421875 400.863281 151.4375 C 401.597656 153.847656 402.308594 156.289062 402.996094 158.757812 C 391.355469 163.363281 379.585938 165.4375 368.589844 164.761719 C 353.789062 163.851562 340.003906 157.792969 330.773438 148.132812 C 324.523438 141.597656 320.328125 133.683594 315.886719 125.304688 C 312.675781 119.25 309.355469 112.988281 305.203125 107.351562 C 295.371094 94.007812 280.484375 84.148438 264.363281 80.300781 C 250.355469 76.960938 235.140625 78.09375 221.683594 83.34375 C 223.910156 79.777344 226.28125 76.289062 228.800781 72.886719 Z M 304.429688 16.402344 C 353.929688 35.449219 394.710938 79.496094 413.953125 134.984375 C 414.296875 135.980469 414.621094 136.980469 414.953125 137.980469 C 411.355469 140.976562 407.445312 143.578125 403.316406 145.761719 C 394.34375 117.804688 382.257812 93.898438 367.257812 74.550781 C 346.867188 48.242188 320.367188 29.585938 292.09375 21.496094 C 296.144531 19.625 300.257812 17.921875 304.429688 16.402344 Z M 416.265625 142.09375 C 417.164062 145 418.003906 147.925781 418.785156 150.867188 C 415.976562 152.59375 413.019531 154.214844 409.90625 155.726562 C 408.859375 156.234375 407.808594 156.714844 406.757812 157.183594 C 406.046875 154.644531 405.304688 152.144531 404.546875 149.667969 C 408.6875 147.535156 412.613281 144.996094 416.265625 142.09375 Z M 442.371094 78.382812 C 441.972656 75.078125 441.332031 71.785156 440.714844 68.601562 C 439.871094 64.253906 439 59.757812 438.773438 55.339844 C 438.382812 47.753906 440.246094 41.175781 443.921875 36.902344 C 445.9375 38.421875 447.917969 39.992188 449.855469 41.621094 C 446.679688 48.441406 445.945312 57.152344 447.695312 67.597656 C 448.253906 70.949219 449 74.300781 449.71875 77.542969 C 451.023438 83.417969 452.375 89.496094 452.589844 95.507812 C 453.03125 107.851562 448.714844 120.671875 440.433594 131.601562 C 435.605469 137.976562 429.546875 143.640625 422.355469 148.546875 C 421.511719 145.429688 420.597656 142.335938 419.621094 139.257812 C 422.457031 136.703125 425.105469 133.921875 427.5 130.910156 C 439.214844 116.199219 444.636719 97.050781 442.371094 78.382812 Z M 408.539062 163.808594 C 408.308594 162.90625 408.058594 162.023438 407.820312 161.125 C 409.105469 160.5625 410.390625 159.980469 411.671875 159.359375 C 414.511719 157.980469 417.226562 156.507812 419.828125 154.953125 C 420.757812 158.769531 421.585938 162.617188 422.316406 166.488281 C 418.371094 168.167969 414.382812 169.734375 410.351562 171.191406 C 409.78125 168.753906 409.183594 166.300781 408.539062 163.808594 Z M 218.113281 89.332031 C 231.953125 82.519531 248.425781 80.652344 263.425781 84.230469 C 278.632812 87.859375 292.675781 97.160156 301.949219 109.75 C 305.925781 115.144531 309.175781 121.273438 312.316406 127.199219 C 316.691406 135.453125 321.21875 143.984375 327.851562 150.925781 C 337.78125 161.3125 352.539062 167.824219 368.34375 168.792969 C 369.785156 168.882812 371.238281 168.925781 372.703125 168.925781 C 382.867188 168.925781 393.523438 166.800781 404.054688 162.6875 C 404.246094 163.402344 404.445312 164.101562 404.628906 164.820312 C 405.300781 167.425781 405.925781 169.992188 406.519531 172.539062 C 374.582031 183.476562 340.292969 187.5 306.753906 183.511719 C 305.515625 181.503906 304.246094 179.511719 302.917969 177.554688 C 279.949219 143.710938 246.683594 119.476562 208.859375 108.90625 C 211.449219 102.210938 214.542969 95.664062 218.113281 89.332031 Z M 332.089844 270.726562 C 331.675781 246.367188 326.054688 221.929688 315.542969 199.703125 C 323.261719 200.542969 331.007812 200.960938 338.75 200.960938 C 362.925781 200.960938 387.035156 196.921875 409.953125 189.292969 C 410.285156 191.210938 410.585938 193.105469 410.871094 194.996094 C 406.476562 197.132812 402.464844 200.03125 399.160156 203.597656 C 392.75 210.515625 389.140625 219.261719 385.648438 227.722656 C 383.402344 233.15625 381.082031 238.777344 378.058594 243.773438 C 368.425781 259.679688 350.65625 270.027344 332.089844 270.726562 Z M 313.421875 195.378906 C 312.132812 192.847656 310.773438 190.347656 309.359375 187.882812 C 316.984375 188.679688 324.640625 189.082031 332.304688 189.082031 C 357.792969 189.082031 383.265625 184.734375 407.421875 176.507812 C 408.074219 179.46875 408.675781 182.398438 409.222656 185.289062 C 378.546875 195.585938 345.671875 199.285156 313.421875 195.378906 Z M 300.457031 252.792969 L 288.175781 207.980469 C 286.957031 203.539062 285.578125 198.5 286.476562 194.042969 C 287.136719 190.769531 289.09375 188.222656 291.167969 185.523438 C 292.640625 183.609375 294.222656 181.550781 295.398438 179.117188 C 295.960938 179.917969 296.523438 180.714844 297.070312 181.523438 C 314.976562 207.910156 324.535156 239.546875 325.035156 271.011719 C 322.152344 269.65625 319.074219 269 316.0625 268.367188 C 312.378906 267.589844 308.894531 266.859375 306.429688 264.882812 C 303.277344 262.351562 301.859375 257.910156 300.457031 252.792969 Z M 332.117188 274.773438 C 352.027344 274.0625 371.171875 262.949219 381.511719 245.867188 C 384.699219 240.605469 387.078125 234.839844 389.382812 229.261719 C 392.894531 220.757812 396.207031 212.726562 402.121094 206.34375 C 404.796875 203.457031 407.988281 201.0625 411.476562 199.210938 C 411.933594 202.625 412.304688 205.988281 412.601562 209.308594 C 408.109375 212.394531 404.363281 216.585938 401.691406 220.738281 C 398.519531 225.667969 396.152344 231.058594 393.859375 236.269531 C 392.03125 240.4375 390.136719 244.746094 387.871094 248.707031 C 376.679688 268.269531 354.453125 281.035156 331.945312 281.070312 C 332.039062 278.976562 332.105469 276.875 332.117188 274.773438 Z M 415.308594 197.4375 C 418.679688 196.105469 422.242188 195.257812 425.84375 194.945312 C 426.039062 198.121094 426.175781 201.316406 426.246094 204.527344 C 422.78125 204.628906 419.488281 205.558594 416.453125 207.046875 C 416.144531 203.886719 415.761719 200.679688 415.308594 197.4375 Z M 425.558594 190.921875 C 421.863281 191.238281 418.207031 192.078125 414.714844 193.363281 C 414.4375 191.582031 414.136719 189.785156 413.820312 187.972656 C 417.546875 186.660156 421.238281 185.246094 424.894531 183.742188 C 425.15625 186.125 425.371094 188.519531 425.558594 190.921875 Z M 413.085938 183.953125 C 412.53125 181.054688 411.917969 178.121094 411.261719 175.15625 C 415.230469 173.726562 419.160156 172.203125 423.046875 170.566406 C 423.550781 173.554688 424.003906 176.554688 424.394531 179.574219 C 420.664062 181.132812 416.894531 182.597656 413.085938 183.953125 Z M 426.867188 168.910156 C 453.789062 157.015625 478.476562 140.132812 498.941406 118.953125 C 499.640625 121.4375 500.273438 123.9375 500.851562 126.441406 C 500.839844 126.449219 500.832031 126.457031 500.824219 126.464844 C 480.507812 148.503906 455.574219 165.914062 428.257812 177.921875 C 427.855469 174.898438 427.386719 171.898438 426.867188 168.910156 Z M 496.125 109.949219 C 496.660156 111.496094 497.164062 113.054688 497.648438 114.613281 C 497.484375 114.710938 497.328125 114.820312 497.191406 114.964844 C 477.089844 136.097656 452.722656 152.953125 426.113281 164.835938 C 425.328125 160.757812 424.441406 156.710938 423.433594 152.695312 C 431.515625 147.363281 438.289062 141.121094 443.652344 134.039062 C 452.496094 122.371094 457.101562 108.632812 456.625 95.363281 C 456.398438 88.980469 455.007812 82.71875 453.664062 76.664062 C 452.953125 73.472656 452.21875 70.175781 451.675781 66.929688 C 450.160156 57.867188 450.621094 50.308594 453.042969 44.394531 C 472.234375 61.558594 487.285156 84.324219 496.125 109.949219 Z M 440.132812 34.128906 C 440.3125 34.253906 440.480469 34.386719 440.65625 34.511719 C 434.984375 41.234375 434.472656 50.378906 434.738281 55.546875 C 434.980469 60.25 435.878906 64.886719 436.75 69.371094 C 437.355469 72.484375 437.980469 75.707031 438.363281 78.867188 C 440.496094 96.472656 435.382812 114.523438 424.339844 128.394531 C 422.457031 130.761719 420.40625 132.972656 418.230469 135.042969 C 418.074219 134.582031 417.925781 134.121094 417.769531 133.664062 C 398.710938 78.707031 358.890625 34.738281 310.285156 14.402344 C 310.886719 14.210938 311.488281 14.003906 312.089844 13.820312 C 356.484375 0.179688 401.960938 7.394531 440.132812 34.128906 Z M 249.40625 49.964844 C 260.558594 39.703125 273.113281 31.011719 286.503906 24.199219 C 315.617188 31.289062 343.121094 50.003906 364.066406 77.023438 C 378.875 96.132812 390.800781 119.808594 399.648438 147.558594 C 393.207031 150.476562 386.308594 152.40625 379.207031 153.15625 C 370.269531 154.097656 362.523438 153.019531 356.183594 149.941406 C 345.09375 144.5625 338.675781 133.722656 331.878906 122.246094 C 329.652344 118.484375 327.351562 114.59375 324.894531 110.972656 C 304.84375 81.414062 267.6875 64.640625 232.269531 68.378906 C 237.46875 61.855469 243.191406 55.683594 249.40625 49.964844 Z M 165.28125 110.050781 C 171.960938 110.050781 178.648438 110.480469 185.292969 111.332031 L 170.488281 133.886719 C 164.996094 133.4375 159.644531 135.078125 155.1875 136.449219 L 124.308594 145.941406 C 122.976562 146.351562 121.375 146.738281 119.675781 147.148438 C 113.367188 148.675781 105.511719 150.574219 101.464844 156.019531 C 100.910156 156.765625 100.441406 157.570312 100.035156 158.414062 L 66.601562 151.808594 C 67.464844 148.746094 67.808594 145.582031 67.328125 142.347656 C 95.054688 121.640625 130.066406 110.050781 165.28125 110.050781 Z M 37.960938 171.476562 C 44.460938 162.816406 51.964844 154.964844 60.238281 147.976562 C 59.332031 153.300781 55.875 158.679688 52.265625 163.828125 L 21.410156 207.832031 L 18.230469 207.136719 C 23.25 194.28125 29.871094 182.253906 37.960938 171.476562 Z M 8.832031 242.667969 C 10.285156 232.765625 12.617188 223.109375 15.765625 213.835938 L 20.734375 214.917969 C 20.050781 223.914062 17.914062 233.269531 15.820312 242.347656 C 13.714844 251.484375 11.5625 260.898438 10.832031 270.101562 C 10.457031 270.664062 10.226562 271.3125 10.214844 272.003906 L 9.773438 296.550781 C 6.53125 278.984375 6.1875 260.707031 8.832031 242.667969 Z M 49.585938 376.011719 L 61.761719 381.308594 L 64.65625 390.671875 C 59.34375 386.113281 54.304688 381.210938 49.585938 376.011719 Z M 101.578125 414.507812 C 92.0625 410.125 82.976562 404.714844 74.460938 398.460938 L 68.953125 380.628906 L 86.824219 362.164062 C 105.84375 368.65625 125.625 372.699219 145.664062 374.1875 C 145.78125 374.363281 145.914062 374.535156 146.0625 374.6875 L 180.9375 410.75 C 182.777344 412.652344 184.992188 414.914062 187.828125 416.425781 L 171.503906 428.964844 C 147.613281 429.441406 123.570312 424.640625 101.578125 414.507812 Z M 237.78125 413.054688 C 219.230469 422.167969 199.003906 427.378906 178.503906 428.683594 L 192.402344 418.007812 C 192.410156 418 192.417969 417.988281 192.429688 417.980469 C 193.210938 418.097656 193.988281 418.152344 194.761719 418.152344 C 199.28125 418.152344 203.566406 416.324219 206.664062 415 L 237.59375 401.796875 C 243.980469 399.074219 251.214844 395.984375 256.421875 390.09375 C 256.9375 389.507812 257.417969 388.902344 257.878906 388.289062 L 273.710938 388.675781 C 262.976562 398.355469 250.894531 406.613281 237.78125 413.054688 Z M 277.933594 384.738281 L 260.417969 384.308594 C 262.714844 380.09375 264.167969 375.539062 265.496094 371.359375 L 274.8125 342.0625 C 275.742188 339.136719 277.148438 334.707031 275.527344 330.464844 C 275.441406 330.246094 275.335938 330.042969 275.242188 329.832031 C 286.984375 311.703125 296.921875 292.339844 304.839844 272.242188 C 307.933594 273.875 311.316406 274.59375 314.613281 275.285156 C 318.1875 276.035156 321.570312 276.746094 324.039062 278.585938 C 324.332031 278.804688 324.648438 278.964844 324.972656 279.082031 C 324.449219 294.613281 321.6875 309.992188 316.601562 324.558594 C 308.65625 347.304688 295.246094 367.949219 277.933594 384.738281 Z M 355.367188 312.699219 C 346.3125 312.882812 337.105469 312.148438 327.96875 310.546875 C 329.886719 302.207031 331.140625 293.695312 331.726562 285.117188 C 331.757812 285.117188 331.792969 285.117188 331.828125 285.117188 C 355.792969 285.117188 379.464844 271.539062 391.378906 250.714844 C 393.75 246.566406 395.6875 242.160156 397.5625 237.898438 C 399.789062 232.828125 402.09375 227.585938 405.089844 222.925781 C 407.113281 219.785156 409.808594 216.621094 412.976562 214.058594 C 413.539062 222.382812 413.601562 230.433594 413.152344 238.265625 C 411.664062 264.167969 404.394531 287.914062 392.140625 307.039062 C 380.039062 310.515625 367.660156 312.449219 355.367188 312.699219 Z M 444.101562 280.917969 C 435.257812 287.609375 425.820312 293.320312 416.003906 297.984375 C 425.65625 267.195312 430.445312 237.429688 430.347656 208.902344 C 437.992188 210.429688 444.941406 216.980469 451.027344 228.421875 C 451.851562 229.96875 452.65625 231.546875 453.460938 233.128906 C 457.804688 241.652344 462.296875 250.460938 470.367188 255.949219 C 462.679688 265.121094 453.863281 273.53125 444.101562 280.917969 Z M 498.800781 204.164062 C 494.984375 216.695312 489.300781 228.800781 482.035156 240.105469 C 477.714844 239.785156 473.792969 236.019531 471.753906 232.222656 C 470.1875 229.304688 469.21875 226.125 468.199219 222.757812 C 467.476562 220.386719 466.730469 217.933594 465.753906 215.570312 C 460.660156 203.226562 448.875 193.726562 435.730469 191.363281 C 433.710938 191 431.660156 190.828125 429.605469 190.792969 C 429.378906 187.890625 429.105469 184.996094 428.773438 182.121094 C 456.183594 170.242188 481.261719 153.007812 501.878906 131.226562 C 506.785156 155.925781 505.789062 181.195312 498.800781 204.164062 Z M 498.800781 204.164062 " style=" stroke:none;fill-rule:nonzero;fill:rgb(0%,0%,0%);fill-opacity:1;" />
<path d="M 464.109375 362.210938 C 459.90625 351.335938 452.410156 341.765625 442.425781 334.535156 C 425.730469 322.449219 403.953125 319.546875 384.167969 326.769531 C 364.683594 333.882812 350.117188 349.902344 345.203125 369.625 C 338.878906 395.011719 350.339844 423.578125 372.457031 437.554688 C 382.347656 443.804688 393.960938 446.875 405.582031 446.875 C 419.949219 446.875 434.332031 442.183594 445.503906 433 C 465.714844 416.386719 473.539062 386.617188 464.109375 362.210938 Z M 374.363281 339.585938 C 380.34375 339.097656 386.679688 341.8125 390.09375 346.746094 C 392.164062 349.726562 393.246094 353.273438 394.390625 357.023438 C 394.839844 358.496094 395.300781 360.019531 395.832031 361.503906 C 397.609375 366.496094 401.066406 372.847656 407.4375 374.777344 C 408.625 375.136719 409.859375 375.308594 411.105469 375.308594 C 416.097656 375.308594 421.300781 372.523438 424.652344 367.789062 C 428.351562 362.558594 429.460938 356.09375 430.054688 350.457031 C 430.171875 349.355469 430.273438 348.246094 430.375 347.136719 C 430.722656 343.367188 431.066406 339.765625 431.9375 336.320312 C 433.882812 337.351562 435.773438 338.507812 437.59375 339.789062 C 436.351562 343.605469 436.066406 347.613281 435.808594 351.515625 C 435.605469 354.515625 435.417969 357.351562 434.820312 360.101562 C 432.761719 369.5625 425.433594 377.289062 416.582031 379.328125 C 407.4375 381.433594 397.25 376.792969 393.390625 368.761719 C 392.394531 366.6875 391.777344 364.4375 391.121094 362.054688 C 390.394531 359.417969 389.644531 356.695312 388.328125 354.136719 C 384.851562 347.382812 377.566406 343.167969 370.105469 342.761719 C 371.472656 341.644531 372.882812 340.578125 374.363281 339.585938 Z M 386.589844 333.410156 C 392.980469 331.078125 399.597656 329.933594 406.148438 329.933594 C 413.761719 329.933594 421.277344 331.492188 428.230469 334.527344 C 427.117188 338.5625 426.726562 342.722656 426.355469 346.765625 C 426.253906 347.859375 426.152344 348.949219 426.039062 350.035156 C 425.496094 355.152344 424.519531 360.984375 421.355469 365.457031 C 418.65625 369.269531 413.414062 372.367188 408.609375 370.910156 C 403.847656 369.46875 401.101562 364.261719 399.636719 360.148438 C 399.136719 358.75 398.6875 357.273438 398.253906 355.847656 C 397.066406 351.960938 395.839844 347.945312 393.414062 344.445312 C 390.394531 340.085938 385.695312 337.136719 380.589844 335.992188 C 382.523438 335.035156 384.519531 334.167969 386.589844 333.410156 Z M 386.5625 436.582031 C 393.269531 435.519531 399.597656 431.746094 403.300781 426.042969 C 404.796875 423.742188 405.855469 421.253906 406.875 418.847656 C 407.746094 416.800781 408.566406 414.871094 409.625 413.074219 C 411.496094 409.890625 415.097656 406.359375 419.105469 406.890625 C 423.738281 407.507812 426.410156 412.9375 428.554688 417.980469 C 431.203125 424.21875 434.429688 428.148438 438.148438 429.71875 C 423.410156 440.179688 403.519531 442.636719 386.5625 436.582031 Z M 442.261719 426.46875 C 442.214844 426.46875 442.171875 426.457031 442.128906 426.460938 C 438.464844 426.488281 435.136719 423.144531 432.273438 416.398438 C 430.410156 412.015625 426.941406 403.855469 419.636719 402.886719 C 413.671875 402.089844 408.761719 406.574219 406.140625 411.023438 C 404.949219 413.046875 404.039062 415.191406 403.160156 417.265625 C 402.160156 419.617188 401.214844 421.835938 399.914062 423.839844 C 395.21875 431.0625 385.476562 434.589844 377.246094 432.050781 C 377.132812 432.015625 377.023438 431.996094 376.910156 431.980469 C 376.683594 431.84375 376.457031 431.714844 376.234375 431.574219 C 374.820312 430.683594 373.460938 429.714844 372.148438 428.695312 C 372.925781 428.769531 373.707031 428.820312 374.492188 428.820312 C 379.351562 428.820312 384.214844 427.386719 388.125 424.539062 C 393.222656 420.824219 396.375 415.394531 399.417969 410.144531 C 400.414062 408.433594 401.4375 406.664062 402.503906 405.011719 C 404.355469 402.144531 411.054688 392.878906 419.53125 394.109375 C 425.925781 395.035156 430.289062 401.472656 434.207031 407.984375 C 437.339844 413.191406 441.488281 419.011719 447.136719 421.582031 C 445.625 423.316406 443.996094 424.945312 442.261719 426.46875 Z M 449.777344 418.304688 C 444.703125 416.554688 440.835938 411.171875 437.664062 405.902344 C 433.246094 398.558594 428.25 391.292969 420.109375 390.109375 C 409.546875 388.582031 401.898438 398.492188 399.105469 402.824219 C 397.988281 404.554688 396.9375 406.367188 395.921875 408.117188 C 392.957031 413.230469 390.152344 418.0625 385.742188 421.273438 C 380.046875 425.421875 371.910156 425.921875 365.65625 422.710938 C 353.1875 409.160156 347.570312 389.347656 352.0625 371.335938 C 354.378906 362.023438 358.980469 353.800781 365.355469 347.152344 C 372.730469 345.558594 381.261719 349.246094 384.734375 355.988281 C 385.859375 358.171875 386.523438 360.578125 387.226562 363.128906 C 387.898438 365.578125 388.59375 368.109375 389.75 370.511719 C 393.640625 378.617188 402.835938 383.867188 412.140625 383.867188 C 413.929688 383.867188 415.726562 383.671875 417.484375 383.265625 C 427.832031 380.882812 436.382812 371.917969 438.765625 360.960938 C 439.425781 357.917969 439.632812 354.800781 439.835938 351.785156 C 440.054688 348.496094 440.273438 345.339844 441.03125 342.394531 C 448.457031 348.484375 454.25 356.316406 457.515625 364.761719 C 464.339844 382.414062 460.976562 403.230469 449.777344 418.304688 Z M 449.777344 418.304688 " style=" stroke:none;fill-rule:nonzero;fill:rgb(0%,0%,0%);fill-opacity:1;" />
</g>
</svg>